<?xml version="1.0" encoding="utf-8" standalone="no"?>
<!DOCTYPE svg PUBLIC "-//W3C//DTD SVG 1.1//EN"
  "http://www.w3.org/Graphics/SVG/1.1/DTD/svg11.dtd">
<svg xmlns:xlink="http://www.w3.org/1999/xlink" width="576pt" height="432pt" viewBox="0 0 576 432" xmlns="http://www.w3.org/2000/svg" version="1.1">
 <metadata>
  <rdf:RDF xmlns:dc="http://purl.org/dc/elements/1.1/" xmlns:cc="http://creativecommons.org/ns#" xmlns:rdf="http://www.w3.org/1999/02/22-rdf-syntax-ns#">
   <cc:Work>
    <dc:type rdf:resource="http://purl.org/dc/dcmitype/StillImage"/>
    <dc:date>2023-08-17T03:24:34.913321</dc:date>
    <dc:format>image/svg+xml</dc:format>
    <dc:creator>
     <cc:Agent>
      <dc:title>Matplotlib v3.7.1, https://matplotlib.org/</dc:title>
     </cc:Agent>
    </dc:creator>
   </cc:Work>
  </rdf:RDF>
 </metadata>
 <defs>
  <style type="text/css">*{stroke-linejoin: round; stroke-linecap: butt}</style>
 </defs>
 <g id="figure_1">
  <g id="patch_1">
   <path d="M 0 432 
L 576 432 
L 576 0 
L 0 0 
z
" style="fill: #ffffff"/>
  </g>
  <g id="axes_1">
   <g id="patch_2">
    <path d="M 62.39 390.04 
L 551.025 390.04 
L 551.025 27.24 
L 62.39 27.24 
z
" style="fill: #ffffff"/>
   </g>
   <g id="matplotlib.axis_1">
    <g id="xtick_1">
     <g id="line2d_1">
      <defs>
       <path id="m5a5387faec" d="M 0 0 
L 0 3.5 
" style="stroke: #000000; stroke-width: 0.8"/>
      </defs>
      <g>
       <use xlink:href="#m5a5387faec" x="84.600682" y="390.04" style="stroke: #000000; stroke-width: 0.8"/>
      </g>
     </g>
     <g id="text_1">
      <!-- 0.000 -->
      <g transform="translate(70.286619 404.638438) scale(0.1 -0.1)">
       <defs>
        <path id="DejaVuSans-30" d="M 2034 4250 
Q 1547 4250 1301 3770 
Q 1056 3291 1056 2328 
Q 1056 1369 1301 889 
Q 1547 409 2034 409 
Q 2525 409 2770 889 
Q 3016 1369 3016 2328 
Q 3016 3291 2770 3770 
Q 2525 4250 2034 4250 
z
M 2034 4750 
Q 2819 4750 3233 4129 
Q 3647 3509 3647 2328 
Q 3647 1150 3233 529 
Q 2819 -91 2034 -91 
Q 1250 -91 836 529 
Q 422 1150 422 2328 
Q 422 3509 836 4129 
Q 1250 4750 2034 4750 
z
" transform="scale(0.015625)"/>
        <path id="DejaVuSans-2e" d="M 684 794 
L 1344 794 
L 1344 0 
L 684 0 
L 684 794 
z
" transform="scale(0.015625)"/>
       </defs>
       <use xlink:href="#DejaVuSans-30"/>
       <use xlink:href="#DejaVuSans-2e" x="63.623047"/>
       <use xlink:href="#DejaVuSans-30" x="95.410156"/>
       <use xlink:href="#DejaVuSans-30" x="159.033203"/>
       <use xlink:href="#DejaVuSans-30" x="222.65625"/>
      </g>
     </g>
    </g>
    <g id="xtick_2">
     <g id="line2d_2">
      <g>
       <use xlink:href="#m5a5387faec" x="151.232727" y="390.04" style="stroke: #000000; stroke-width: 0.8"/>
      </g>
     </g>
     <g id="text_2">
      <!-- 0.005 -->
      <g transform="translate(136.918665 404.638438) scale(0.1 -0.1)">
       <defs>
        <path id="DejaVuSans-35" d="M 691 4666 
L 3169 4666 
L 3169 4134 
L 1269 4134 
L 1269 2991 
Q 1406 3038 1543 3061 
Q 1681 3084 1819 3084 
Q 2600 3084 3056 2656 
Q 3513 2228 3513 1497 
Q 3513 744 3044 326 
Q 2575 -91 1722 -91 
Q 1428 -91 1123 -41 
Q 819 9 494 109 
L 494 744 
Q 775 591 1075 516 
Q 1375 441 1709 441 
Q 2250 441 2565 725 
Q 2881 1009 2881 1497 
Q 2881 1984 2565 2268 
Q 2250 2553 1709 2553 
Q 1456 2553 1204 2497 
Q 953 2441 691 2322 
L 691 4666 
z
" transform="scale(0.015625)"/>
       </defs>
       <use xlink:href="#DejaVuSans-30"/>
       <use xlink:href="#DejaVuSans-2e" x="63.623047"/>
       <use xlink:href="#DejaVuSans-30" x="95.410156"/>
       <use xlink:href="#DejaVuSans-30" x="159.033203"/>
       <use xlink:href="#DejaVuSans-35" x="222.65625"/>
      </g>
     </g>
    </g>
    <g id="xtick_3">
     <g id="line2d_3">
      <g>
       <use xlink:href="#m5a5387faec" x="217.864773" y="390.04" style="stroke: #000000; stroke-width: 0.8"/>
      </g>
     </g>
     <g id="text_3">
      <!-- 0.010 -->
      <g transform="translate(203.55071 404.638438) scale(0.1 -0.1)">
       <defs>
        <path id="DejaVuSans-31" d="M 794 531 
L 1825 531 
L 1825 4091 
L 703 3866 
L 703 4441 
L 1819 4666 
L 2450 4666 
L 2450 531 
L 3481 531 
L 3481 0 
L 794 0 
L 794 531 
z
" transform="scale(0.015625)"/>
       </defs>
       <use xlink:href="#DejaVuSans-30"/>
       <use xlink:href="#DejaVuSans-2e" x="63.623047"/>
       <use xlink:href="#DejaVuSans-30" x="95.410156"/>
       <use xlink:href="#DejaVuSans-31" x="159.033203"/>
       <use xlink:href="#DejaVuSans-30" x="222.65625"/>
      </g>
     </g>
    </g>
    <g id="xtick_4">
     <g id="line2d_4">
      <g>
       <use xlink:href="#m5a5387faec" x="284.496818" y="390.04" style="stroke: #000000; stroke-width: 0.8"/>
      </g>
     </g>
     <g id="text_4">
      <!-- 0.015 -->
      <g transform="translate(270.182756 404.638438) scale(0.1 -0.1)">
       <use xlink:href="#DejaVuSans-30"/>
       <use xlink:href="#DejaVuSans-2e" x="63.623047"/>
       <use xlink:href="#DejaVuSans-30" x="95.410156"/>
       <use xlink:href="#DejaVuSans-31" x="159.033203"/>
       <use xlink:href="#DejaVuSans-35" x="222.65625"/>
      </g>
     </g>
    </g>
    <g id="xtick_5">
     <g id="line2d_5">
      <g>
       <use xlink:href="#m5a5387faec" x="351.128864" y="390.04" style="stroke: #000000; stroke-width: 0.8"/>
      </g>
     </g>
     <g id="text_5">
      <!-- 0.020 -->
      <g transform="translate(336.814801 404.638438) scale(0.1 -0.1)">
       <defs>
        <path id="DejaVuSans-32" d="M 1228 531 
L 3431 531 
L 3431 0 
L 469 0 
L 469 531 
Q 828 903 1448 1529 
Q 2069 2156 2228 2338 
Q 2531 2678 2651 2914 
Q 2772 3150 2772 3378 
Q 2772 3750 2511 3984 
Q 2250 4219 1831 4219 
Q 1534 4219 1204 4116 
Q 875 4013 500 3803 
L 500 4441 
Q 881 4594 1212 4672 
Q 1544 4750 1819 4750 
Q 2544 4750 2975 4387 
Q 3406 4025 3406 3419 
Q 3406 3131 3298 2873 
Q 3191 2616 2906 2266 
Q 2828 2175 2409 1742 
Q 1991 1309 1228 531 
z
" transform="scale(0.015625)"/>
       </defs>
       <use xlink:href="#DejaVuSans-30"/>
       <use xlink:href="#DejaVuSans-2e" x="63.623047"/>
       <use xlink:href="#DejaVuSans-30" x="95.410156"/>
       <use xlink:href="#DejaVuSans-32" x="159.033203"/>
       <use xlink:href="#DejaVuSans-30" x="222.65625"/>
      </g>
     </g>
    </g>
    <g id="xtick_6">
     <g id="line2d_6">
      <g>
       <use xlink:href="#m5a5387faec" x="417.760909" y="390.04" style="stroke: #000000; stroke-width: 0.8"/>
      </g>
     </g>
     <g id="text_6">
      <!-- 0.025 -->
      <g transform="translate(403.446847 404.638438) scale(0.1 -0.1)">
       <use xlink:href="#DejaVuSans-30"/>
       <use xlink:href="#DejaVuSans-2e" x="63.623047"/>
       <use xlink:href="#DejaVuSans-30" x="95.410156"/>
       <use xlink:href="#DejaVuSans-32" x="159.033203"/>
       <use xlink:href="#DejaVuSans-35" x="222.65625"/>
      </g>
     </g>
    </g>
    <g id="xtick_7">
     <g id="line2d_7">
      <g>
       <use xlink:href="#m5a5387faec" x="484.392955" y="390.04" style="stroke: #000000; stroke-width: 0.8"/>
      </g>
     </g>
     <g id="text_7">
      <!-- 0.030 -->
      <g transform="translate(470.078892 404.638438) scale(0.1 -0.1)">
       <defs>
        <path id="DejaVuSans-33" d="M 2597 2516 
Q 3050 2419 3304 2112 
Q 3559 1806 3559 1356 
Q 3559 666 3084 287 
Q 2609 -91 1734 -91 
Q 1441 -91 1130 -33 
Q 819 25 488 141 
L 488 750 
Q 750 597 1062 519 
Q 1375 441 1716 441 
Q 2309 441 2620 675 
Q 2931 909 2931 1356 
Q 2931 1769 2642 2001 
Q 2353 2234 1838 2234 
L 1294 2234 
L 1294 2753 
L 1863 2753 
Q 2328 2753 2575 2939 
Q 2822 3125 2822 3475 
Q 2822 3834 2567 4026 
Q 2313 4219 1838 4219 
Q 1578 4219 1281 4162 
Q 984 4106 628 3988 
L 628 4550 
Q 988 4650 1302 4700 
Q 1616 4750 1894 4750 
Q 2613 4750 3031 4423 
Q 3450 4097 3450 3541 
Q 3450 3153 3228 2886 
Q 3006 2619 2597 2516 
z
" transform="scale(0.015625)"/>
       </defs>
       <use xlink:href="#DejaVuSans-30"/>
       <use xlink:href="#DejaVuSans-2e" x="63.623047"/>
       <use xlink:href="#DejaVuSans-30" x="95.410156"/>
       <use xlink:href="#DejaVuSans-33" x="159.033203"/>
       <use xlink:href="#DejaVuSans-30" x="222.65625"/>
      </g>
     </g>
    </g>
    <g id="xtick_8">
     <g id="line2d_8">
      <g>
       <use xlink:href="#m5a5387faec" x="551.025" y="390.04" style="stroke: #000000; stroke-width: 0.8"/>
      </g>
     </g>
     <g id="text_8">
      <!-- 0.035 -->
      <g transform="translate(536.710938 404.638438) scale(0.1 -0.1)">
       <use xlink:href="#DejaVuSans-30"/>
       <use xlink:href="#DejaVuSans-2e" x="63.623047"/>
       <use xlink:href="#DejaVuSans-30" x="95.410156"/>
       <use xlink:href="#DejaVuSans-33" x="159.033203"/>
       <use xlink:href="#DejaVuSans-35" x="222.65625"/>
      </g>
     </g>
    </g>
    <g id="text_9">
     <!-- Tiempo (s) -->
     <g transform="translate(280.145 418.316562) scale(0.1 -0.1)">
      <defs>
       <path id="DejaVuSans-54" d="M -19 4666 
L 3928 4666 
L 3928 4134 
L 2272 4134 
L 2272 0 
L 1638 0 
L 1638 4134 
L -19 4134 
L -19 4666 
z
" transform="scale(0.015625)"/>
       <path id="DejaVuSans-69" d="M 603 3500 
L 1178 3500 
L 1178 0 
L 603 0 
L 603 3500 
z
M 603 4863 
L 1178 4863 
L 1178 4134 
L 603 4134 
L 603 4863 
z
" transform="scale(0.015625)"/>
       <path id="DejaVuSans-65" d="M 3597 1894 
L 3597 1613 
L 953 1613 
Q 991 1019 1311 708 
Q 1631 397 2203 397 
Q 2534 397 2845 478 
Q 3156 559 3463 722 
L 3463 178 
Q 3153 47 2828 -22 
Q 2503 -91 2169 -91 
Q 1331 -91 842 396 
Q 353 884 353 1716 
Q 353 2575 817 3079 
Q 1281 3584 2069 3584 
Q 2775 3584 3186 3129 
Q 3597 2675 3597 1894 
z
M 3022 2063 
Q 3016 2534 2758 2815 
Q 2500 3097 2075 3097 
Q 1594 3097 1305 2825 
Q 1016 2553 972 2059 
L 3022 2063 
z
" transform="scale(0.015625)"/>
       <path id="DejaVuSans-6d" d="M 3328 2828 
Q 3544 3216 3844 3400 
Q 4144 3584 4550 3584 
Q 5097 3584 5394 3201 
Q 5691 2819 5691 2113 
L 5691 0 
L 5113 0 
L 5113 2094 
Q 5113 2597 4934 2840 
Q 4756 3084 4391 3084 
Q 3944 3084 3684 2787 
Q 3425 2491 3425 1978 
L 3425 0 
L 2847 0 
L 2847 2094 
Q 2847 2600 2669 2842 
Q 2491 3084 2119 3084 
Q 1678 3084 1418 2786 
Q 1159 2488 1159 1978 
L 1159 0 
L 581 0 
L 581 3500 
L 1159 3500 
L 1159 2956 
Q 1356 3278 1631 3431 
Q 1906 3584 2284 3584 
Q 2666 3584 2933 3390 
Q 3200 3197 3328 2828 
z
" transform="scale(0.015625)"/>
       <path id="DejaVuSans-70" d="M 1159 525 
L 1159 -1331 
L 581 -1331 
L 581 3500 
L 1159 3500 
L 1159 2969 
Q 1341 3281 1617 3432 
Q 1894 3584 2278 3584 
Q 2916 3584 3314 3078 
Q 3713 2572 3713 1747 
Q 3713 922 3314 415 
Q 2916 -91 2278 -91 
Q 1894 -91 1617 61 
Q 1341 213 1159 525 
z
M 3116 1747 
Q 3116 2381 2855 2742 
Q 2594 3103 2138 3103 
Q 1681 3103 1420 2742 
Q 1159 2381 1159 1747 
Q 1159 1113 1420 752 
Q 1681 391 2138 391 
Q 2594 391 2855 752 
Q 3116 1113 3116 1747 
z
" transform="scale(0.015625)"/>
       <path id="DejaVuSans-6f" d="M 1959 3097 
Q 1497 3097 1228 2736 
Q 959 2375 959 1747 
Q 959 1119 1226 758 
Q 1494 397 1959 397 
Q 2419 397 2687 759 
Q 2956 1122 2956 1747 
Q 2956 2369 2687 2733 
Q 2419 3097 1959 3097 
z
M 1959 3584 
Q 2709 3584 3137 3096 
Q 3566 2609 3566 1747 
Q 3566 888 3137 398 
Q 2709 -91 1959 -91 
Q 1206 -91 779 398 
Q 353 888 353 1747 
Q 353 2609 779 3096 
Q 1206 3584 1959 3584 
z
" transform="scale(0.015625)"/>
       <path id="DejaVuSans-20" transform="scale(0.015625)"/>
       <path id="DejaVuSans-28" d="M 1984 4856 
Q 1566 4138 1362 3434 
Q 1159 2731 1159 2009 
Q 1159 1288 1364 580 
Q 1569 -128 1984 -844 
L 1484 -844 
Q 1016 -109 783 600 
Q 550 1309 550 2009 
Q 550 2706 781 3412 
Q 1013 4119 1484 4856 
L 1984 4856 
z
" transform="scale(0.015625)"/>
       <path id="DejaVuSans-73" d="M 2834 3397 
L 2834 2853 
Q 2591 2978 2328 3040 
Q 2066 3103 1784 3103 
Q 1356 3103 1142 2972 
Q 928 2841 928 2578 
Q 928 2378 1081 2264 
Q 1234 2150 1697 2047 
L 1894 2003 
Q 2506 1872 2764 1633 
Q 3022 1394 3022 966 
Q 3022 478 2636 193 
Q 2250 -91 1575 -91 
Q 1294 -91 989 -36 
Q 684 19 347 128 
L 347 722 
Q 666 556 975 473 
Q 1284 391 1588 391 
Q 1994 391 2212 530 
Q 2431 669 2431 922 
Q 2431 1156 2273 1281 
Q 2116 1406 1581 1522 
L 1381 1569 
Q 847 1681 609 1914 
Q 372 2147 372 2553 
Q 372 3047 722 3315 
Q 1072 3584 1716 3584 
Q 2034 3584 2315 3537 
Q 2597 3491 2834 3397 
z
" transform="scale(0.015625)"/>
       <path id="DejaVuSans-29" d="M 513 4856 
L 1013 4856 
Q 1481 4119 1714 3412 
Q 1947 2706 1947 2009 
Q 1947 1309 1714 600 
Q 1481 -109 1013 -844 
L 513 -844 
Q 928 -128 1133 580 
Q 1338 1288 1338 2009 
Q 1338 2731 1133 3434 
Q 928 4138 513 4856 
z
" transform="scale(0.015625)"/>
      </defs>
      <use xlink:href="#DejaVuSans-54"/>
      <use xlink:href="#DejaVuSans-69" x="57.958984"/>
      <use xlink:href="#DejaVuSans-65" x="85.742188"/>
      <use xlink:href="#DejaVuSans-6d" x="147.265625"/>
      <use xlink:href="#DejaVuSans-70" x="244.677734"/>
      <use xlink:href="#DejaVuSans-6f" x="308.154297"/>
      <use xlink:href="#DejaVuSans-20" x="369.335938"/>
      <use xlink:href="#DejaVuSans-28" x="401.123047"/>
      <use xlink:href="#DejaVuSans-73" x="440.136719"/>
      <use xlink:href="#DejaVuSans-29" x="492.236328"/>
     </g>
    </g>
   </g>
   <g id="matplotlib.axis_2">
    <g id="ytick_1">
     <g id="line2d_9">
      <defs>
       <path id="mae18fa24d4" d="M 0 0 
L -3.5 0 
" style="stroke: #000000; stroke-width: 0.8"/>
      </defs>
      <g>
       <use xlink:href="#mae18fa24d4" x="62.39" y="373.549295" style="stroke: #000000; stroke-width: 0.8"/>
      </g>
     </g>
     <g id="text_10">
      <!-- −10.0 -->
      <g transform="translate(24.744688 377.348514) scale(0.1 -0.1)">
       <defs>
        <path id="DejaVuSans-2212" d="M 678 2272 
L 4684 2272 
L 4684 1741 
L 678 1741 
L 678 2272 
z
" transform="scale(0.015625)"/>
       </defs>
       <use xlink:href="#DejaVuSans-2212"/>
       <use xlink:href="#DejaVuSans-31" x="83.789062"/>
       <use xlink:href="#DejaVuSans-30" x="147.412109"/>
       <use xlink:href="#DejaVuSans-2e" x="211.035156"/>
       <use xlink:href="#DejaVuSans-30" x="242.822266"/>
      </g>
     </g>
    </g>
    <g id="ytick_2">
     <g id="line2d_10">
      <g>
       <use xlink:href="#mae18fa24d4" x="62.39" y="332.321971" style="stroke: #000000; stroke-width: 0.8"/>
      </g>
     </g>
     <g id="text_11">
      <!-- −7.5 -->
      <g transform="translate(31.107188 336.12119) scale(0.1 -0.1)">
       <defs>
        <path id="DejaVuSans-37" d="M 525 4666 
L 3525 4666 
L 3525 4397 
L 1831 0 
L 1172 0 
L 2766 4134 
L 525 4134 
L 525 4666 
z
" transform="scale(0.015625)"/>
       </defs>
       <use xlink:href="#DejaVuSans-2212"/>
       <use xlink:href="#DejaVuSans-37" x="83.789062"/>
       <use xlink:href="#DejaVuSans-2e" x="147.412109"/>
       <use xlink:href="#DejaVuSans-35" x="179.199219"/>
      </g>
     </g>
    </g>
    <g id="ytick_3">
     <g id="line2d_11">
      <g>
       <use xlink:href="#mae18fa24d4" x="62.39" y="291.094647" style="stroke: #000000; stroke-width: 0.8"/>
      </g>
     </g>
     <g id="text_12">
      <!-- −5.0 -->
      <g transform="translate(31.107188 294.893866) scale(0.1 -0.1)">
       <use xlink:href="#DejaVuSans-2212"/>
       <use xlink:href="#DejaVuSans-35" x="83.789062"/>
       <use xlink:href="#DejaVuSans-2e" x="147.412109"/>
       <use xlink:href="#DejaVuSans-30" x="179.199219"/>
      </g>
     </g>
    </g>
    <g id="ytick_4">
     <g id="line2d_12">
      <g>
       <use xlink:href="#mae18fa24d4" x="62.39" y="249.867324" style="stroke: #000000; stroke-width: 0.8"/>
      </g>
     </g>
     <g id="text_13">
      <!-- −2.5 -->
      <g transform="translate(31.107188 253.666542) scale(0.1 -0.1)">
       <use xlink:href="#DejaVuSans-2212"/>
       <use xlink:href="#DejaVuSans-32" x="83.789062"/>
       <use xlink:href="#DejaVuSans-2e" x="147.412109"/>
       <use xlink:href="#DejaVuSans-35" x="179.199219"/>
      </g>
     </g>
    </g>
    <g id="ytick_5">
     <g id="line2d_13">
      <g>
       <use xlink:href="#mae18fa24d4" x="62.39" y="208.64" style="stroke: #000000; stroke-width: 0.8"/>
      </g>
     </g>
     <g id="text_14">
      <!-- 0.0 -->
      <g transform="translate(39.486875 212.439219) scale(0.1 -0.1)">
       <use xlink:href="#DejaVuSans-30"/>
       <use xlink:href="#DejaVuSans-2e" x="63.623047"/>
       <use xlink:href="#DejaVuSans-30" x="95.410156"/>
      </g>
     </g>
    </g>
    <g id="ytick_6">
     <g id="line2d_14">
      <g>
       <use xlink:href="#mae18fa24d4" x="62.39" y="167.412676" style="stroke: #000000; stroke-width: 0.8"/>
      </g>
     </g>
     <g id="text_15">
      <!-- 2.5 -->
      <g transform="translate(39.486875 171.211895) scale(0.1 -0.1)">
       <use xlink:href="#DejaVuSans-32"/>
       <use xlink:href="#DejaVuSans-2e" x="63.623047"/>
       <use xlink:href="#DejaVuSans-35" x="95.410156"/>
      </g>
     </g>
    </g>
    <g id="ytick_7">
     <g id="line2d_15">
      <g>
       <use xlink:href="#mae18fa24d4" x="62.39" y="126.185353" style="stroke: #000000; stroke-width: 0.8"/>
      </g>
     </g>
     <g id="text_16">
      <!-- 5.0 -->
      <g transform="translate(39.486875 129.984571) scale(0.1 -0.1)">
       <use xlink:href="#DejaVuSans-35"/>
       <use xlink:href="#DejaVuSans-2e" x="63.623047"/>
       <use xlink:href="#DejaVuSans-30" x="95.410156"/>
      </g>
     </g>
    </g>
    <g id="ytick_8">
     <g id="line2d_16">
      <g>
       <use xlink:href="#mae18fa24d4" x="62.39" y="84.958029" style="stroke: #000000; stroke-width: 0.8"/>
      </g>
     </g>
     <g id="text_17">
      <!-- 7.5 -->
      <g transform="translate(39.486875 88.757248) scale(0.1 -0.1)">
       <use xlink:href="#DejaVuSans-37"/>
       <use xlink:href="#DejaVuSans-2e" x="63.623047"/>
       <use xlink:href="#DejaVuSans-35" x="95.410156"/>
      </g>
     </g>
    </g>
    <g id="ytick_9">
     <g id="line2d_17">
      <g>
       <use xlink:href="#mae18fa24d4" x="62.39" y="43.730705" style="stroke: #000000; stroke-width: 0.8"/>
      </g>
     </g>
     <g id="text_18">
      <!-- 10.0 -->
      <g transform="translate(33.124375 47.529924) scale(0.1 -0.1)">
       <use xlink:href="#DejaVuSans-31"/>
       <use xlink:href="#DejaVuSans-30" x="63.623047"/>
       <use xlink:href="#DejaVuSans-2e" x="127.246094"/>
       <use xlink:href="#DejaVuSans-30" x="159.033203"/>
      </g>
     </g>
    </g>
    <g id="text_19">
     <!-- Voltajes (V) -->
     <g transform="translate(18.665 237.126719) rotate(-90) scale(0.1 -0.1)">
      <defs>
       <path id="DejaVuSans-56" d="M 1831 0 
L 50 4666 
L 709 4666 
L 2188 738 
L 3669 4666 
L 4325 4666 
L 2547 0 
L 1831 0 
z
" transform="scale(0.015625)"/>
       <path id="DejaVuSans-6c" d="M 603 4863 
L 1178 4863 
L 1178 0 
L 603 0 
L 603 4863 
z
" transform="scale(0.015625)"/>
       <path id="DejaVuSans-74" d="M 1172 4494 
L 1172 3500 
L 2356 3500 
L 2356 3053 
L 1172 3053 
L 1172 1153 
Q 1172 725 1289 603 
Q 1406 481 1766 481 
L 2356 481 
L 2356 0 
L 1766 0 
Q 1100 0 847 248 
Q 594 497 594 1153 
L 594 3053 
L 172 3053 
L 172 3500 
L 594 3500 
L 594 4494 
L 1172 4494 
z
" transform="scale(0.015625)"/>
       <path id="DejaVuSans-61" d="M 2194 1759 
Q 1497 1759 1228 1600 
Q 959 1441 959 1056 
Q 959 750 1161 570 
Q 1363 391 1709 391 
Q 2188 391 2477 730 
Q 2766 1069 2766 1631 
L 2766 1759 
L 2194 1759 
z
M 3341 1997 
L 3341 0 
L 2766 0 
L 2766 531 
Q 2569 213 2275 61 
Q 1981 -91 1556 -91 
Q 1019 -91 701 211 
Q 384 513 384 1019 
Q 384 1609 779 1909 
Q 1175 2209 1959 2209 
L 2766 2209 
L 2766 2266 
Q 2766 2663 2505 2880 
Q 2244 3097 1772 3097 
Q 1472 3097 1187 3025 
Q 903 2953 641 2809 
L 641 3341 
Q 956 3463 1253 3523 
Q 1550 3584 1831 3584 
Q 2591 3584 2966 3190 
Q 3341 2797 3341 1997 
z
" transform="scale(0.015625)"/>
       <path id="DejaVuSans-6a" d="M 603 3500 
L 1178 3500 
L 1178 -63 
Q 1178 -731 923 -1031 
Q 669 -1331 103 -1331 
L -116 -1331 
L -116 -844 
L 38 -844 
Q 366 -844 484 -692 
Q 603 -541 603 -63 
L 603 3500 
z
M 603 4863 
L 1178 4863 
L 1178 4134 
L 603 4134 
L 603 4863 
z
" transform="scale(0.015625)"/>
      </defs>
      <use xlink:href="#DejaVuSans-56"/>
      <use xlink:href="#DejaVuSans-6f" x="60.658203"/>
      <use xlink:href="#DejaVuSans-6c" x="121.839844"/>
      <use xlink:href="#DejaVuSans-74" x="149.623047"/>
      <use xlink:href="#DejaVuSans-61" x="188.832031"/>
      <use xlink:href="#DejaVuSans-6a" x="250.111328"/>
      <use xlink:href="#DejaVuSans-65" x="277.894531"/>
      <use xlink:href="#DejaVuSans-73" x="339.417969"/>
      <use xlink:href="#DejaVuSans-20" x="391.517578"/>
      <use xlink:href="#DejaVuSans-28" x="423.304688"/>
      <use xlink:href="#DejaVuSans-56" x="462.318359"/>
      <use xlink:href="#DejaVuSans-29" x="530.726562"/>
     </g>
    </g>
   </g>
   <g id="line2d_18">
    <path d="M 84.600682 208.64 
L 93.938506 165.582759 
L 98.829747 144.037765 
L 102.831672 127.310683 
L 106.388938 113.309934 
L 109.501546 101.845915 
L 112.614154 91.209363 
L 115.282104 82.813576 
L 117.950054 75.13419 
L 120.173345 69.313627 
L 122.396637 64.044022 
L 124.619928 59.346214 
L 126.84322 55.23878 
L 128.621853 52.388897 
L 130.400486 49.934509 
L 132.179119 47.881827 
L 133.957753 46.236048 
L 135.291727 45.271288 
L 136.625702 44.539149 
L 137.959677 44.040673 
L 139.293652 43.776571 
L 140.627627 43.747217 
L 141.961602 43.952655 
L 143.295577 44.392591 
L 144.629552 45.066399 
L 145.963526 45.973119 
L 147.297501 47.111461 
L 149.076135 48.986702 
L 150.854768 51.266048 
L 152.633401 53.943731 
L 154.412034 57.012973 
L 156.190667 60.466005 
L 158.413959 65.308593 
L 160.63725 70.717978 
L 162.860542 76.672768 
L 165.528491 84.505149 
L 168.196441 93.044301 
L 171.309049 103.834852 
L 174.421657 115.437461 
L 177.978924 129.576356 
L 181.980848 146.431388 
L 186.87209 168.091017 
L 193.541964 198.79253 
L 205.547738 254.194854 
L 210.438979 275.619887 
L 214.440904 292.214882 
L 217.99817 306.074024 
L 221.110778 317.39662 
L 224.223386 327.876542 
L 226.891336 336.126889 
L 229.559286 343.651381 
L 231.782577 349.336279 
L 234.005869 354.464801 
L 236.22916 359.016667 
L 238.007793 362.230793 
L 239.786427 365.056158 
L 241.56506 367.485611 
L 243.343693 369.513003 
L 245.122326 371.133202 
L 246.456301 372.078625 
L 247.790276 372.791327 
L 249.124251 373.270294 
L 250.458226 373.514844 
L 251.792201 373.524629 
L 253.126175 373.299634 
L 254.46015 372.84018 
L 255.794125 372.146922 
L 257.1281 371.220845 
L 258.462075 370.06327 
L 260.240708 368.162623 
L 262.019341 365.858201 
L 263.797975 363.155837 
L 265.576608 360.062371 
L 267.355241 356.585632 
L 269.578532 351.71423 
L 271.801824 346.277049 
L 274.025115 340.295589 
L 276.693065 332.43284 
L 279.361015 323.865268 
L 282.473623 313.044235 
L 285.586231 301.414252 
L 289.143497 287.248146 
L 293.145422 270.368023 
L 298.036663 248.686109 
L 304.706538 217.969751 
L 316.267653 164.582401 
L 321.158895 143.084754 
L 325.160819 126.410013 
L 328.718086 112.465493 
L 331.830694 101.057705 
L 334.943302 90.483492 
L 337.611251 82.145634 
L 340.279201 74.52798 
L 342.502493 68.761512 
L 344.725784 63.548186 
L 346.949076 58.908617 
L 349.172367 54.861153 
L 350.951 52.060333 
L 352.729633 49.655839 
L 354.508267 47.653757 
L 356.2869 46.059155 
L 357.620875 45.133078 
L 358.95485 44.43982 
L 360.288825 43.980366 
L 361.622799 43.755371 
L 362.956774 43.765156 
L 364.290749 44.009706 
L 365.624724 44.488673 
L 366.958699 45.201375 
L 368.292674 46.146798 
L 369.626649 47.323595 
L 371.405282 49.249629 
L 373.183915 51.579104 
L 374.962548 54.306123 
L 376.741181 57.423783 
L 378.964473 61.858084 
L 381.187764 66.872826 
L 383.411056 72.448178 
L 385.634347 78.562093 
L 388.302297 86.575509 
L 390.970247 95.283909 
L 394.082855 106.255735 
L 397.195463 118.020862 
L 400.752729 132.320915 
L 404.754654 149.323985 
L 409.645895 171.114104 
L 416.760428 203.973255 
L 426.987569 251.196422 
L 431.87881 272.76477 
L 435.880735 289.517773 
L 439.438001 303.546429 
L 442.550609 315.038395 
L 445.663217 325.705957 
L 448.331167 334.130585 
L 450.999117 341.840723 
L 453.222408 347.688248 
L 455.4457 352.985914 
L 457.668991 357.712772 
L 459.892283 361.85013 
L 461.670916 364.724502 
L 463.449549 367.203801 
L 465.228182 369.281752 
L 467.006815 370.953096 
L 468.34079 371.937183 
L 469.674765 372.688752 
L 471.00874 373.206731 
L 472.342715 373.490384 
L 473.67669 373.539306 
L 475.010665 373.353428 
L 476.344639 372.933014 
L 477.678614 372.278663 
L 479.012589 371.391307 
L 480.346564 370.27221 
L 482.125197 368.422394 
L 483.90383 366.168146 
L 485.682464 363.515171 
L 487.461097 360.470184 
L 489.23973 357.040893 
L 491.463021 352.227166 
L 493.686313 346.845631 
L 495.909604 340.91757 
L 498.577554 333.115635 
L 501.245504 324.604988 
L 504.358112 313.845024 
L 507.47072 302.269905 
L 511.027986 288.158361 
L 515.029911 271.328586 
L 519.921152 249.691457 
L 526.591027 219.005092 
L 528.814318 208.64 
L 528.814318 208.64 
" clip-path="url(#p04893b7aca)" style="fill: none; stroke: #0000ff; stroke-width: 1.5; stroke-linecap: square"/>
   </g>
   <g id="line2d_19">
    <path d="M 84.600682 208.64 
L 86.823973 208.64 
L 87.268632 207.749149 
L 94.383164 175.127438 
L 99.274406 153.677988 
L 103.27633 137.056247 
L 106.833597 123.168508 
L 109.946205 111.817402 
L 113.058813 101.305946 
L 115.726762 93.026346 
L 118.394712 85.470726 
L 120.618004 79.758581 
L 122.841295 74.60174 
L 125.064587 70.020594 
L 126.84322 66.78243 
L 128.621853 63.932548 
L 130.400486 61.47816 
L 132.179119 59.425478 
L 133.957753 57.779699 
L 135.291727 56.814939 
L 136.625702 56.0828 
L 137.959677 55.584324 
L 139.293652 55.320221 
L 140.627627 55.290868 
L 141.961602 55.496305 
L 143.295577 55.936241 
L 144.629552 56.610049 
L 145.963526 57.51677 
L 147.297501 58.655112 
L 149.076135 60.530353 
L 150.854768 62.809699 
L 152.633401 65.487382 
L 154.412034 68.556624 
L 156.190667 72.009655 
L 158.413959 76.852244 
L 160.63725 82.261629 
L 162.860542 88.216418 
L 165.528491 96.048799 
L 168.196441 104.587951 
L 171.309049 115.378503 
L 174.421657 126.981111 
L 177.978924 141.120006 
L 181.980848 157.975039 
L 186.87209 179.634667 
L 193.097306 208.26633 
L 193.541964 208.64 
L 197.988547 208.64 
L 198.433205 207.232092 
L 205.547738 174.628796 
L 210.438979 153.203763 
L 214.440904 136.608769 
L 217.99817 122.749627 
L 221.110778 111.427031 
L 224.223386 100.947109 
L 226.891336 92.696761 
L 229.559286 85.17227 
L 231.782577 79.487372 
L 234.005869 74.35885 
L 236.22916 69.806983 
L 238.007793 66.592858 
L 239.786427 63.767492 
L 241.56506 61.338039 
L 243.343693 59.310647 
L 245.122326 57.690448 
L 246.456301 56.745026 
L 247.790276 56.032323 
L 249.124251 55.553356 
L 250.458226 55.308806 
L 251.792201 55.299022 
L 253.126175 55.524017 
L 254.46015 55.983471 
L 255.794125 56.676729 
L 257.1281 57.602805 
L 258.462075 58.76038 
L 260.240708 60.661028 
L 262.019341 62.96545 
L 263.797975 65.667814 
L 265.576608 68.76128 
L 267.355241 72.238018 
L 269.578532 77.10942 
L 271.801824 82.546602 
L 274.025115 88.528061 
L 276.693065 96.39081 
L 279.361015 104.958383 
L 282.473623 115.779415 
L 285.586231 127.409399 
L 289.143497 141.575504 
L 293.145422 158.455628 
L 298.036663 180.137542 
L 304.261879 208.64 
L 309.153121 208.64 
L 310.931754 200.523856 
L 317.601628 170.161888 
L 322.492869 148.966112 
L 326.494794 132.61919 
L 330.05206 119.023551 
L 333.164669 107.962547 
L 336.277277 97.771062 
L 338.945226 89.787622 
L 341.613176 82.546602 
L 343.836468 77.10942 
L 346.059759 72.238018 
L 348.283051 67.951659 
L 350.061684 64.955273 
L 351.840317 62.351792 
L 353.61895 60.147806 
L 355.397583 58.348895 
L 356.731558 57.268319 
L 358.065533 56.419719 
L 359.399508 55.804302 
L 360.733483 55.422945 
L 362.067458 55.276191 
L 363.401433 55.364248 
L 364.735407 55.686992 
L 366.069382 56.243964 
L 367.403357 57.034369 
L 368.737332 58.057082 
L 370.071307 59.310647 
L 371.84994 61.338039 
L 373.628573 63.767492 
L 375.407207 66.592858 
L 377.18584 69.806983 
L 379.409131 74.35885 
L 381.632423 79.487372 
L 383.855714 85.17227 
L 386.523664 92.696761 
L 389.191614 100.947109 
L 391.859563 109.876339 
L 394.972171 121.083779 
L 398.529438 134.827167 
L 402.531362 151.313536 
L 406.977945 170.656297 
L 412.758503 196.924624 
L 414.981795 207.232092 
L 415.426453 208.64 
L 419.873036 208.64 
L 420.317694 208.26633 
L 427.876885 173.63287 
L 432.768127 152.257306 
L 436.770051 135.716297 
L 440.327318 121.914759 
L 443.439926 110.649518 
L 446.552534 100.232976 
L 449.220483 92.041378 
L 451.888433 84.579367 
L 454.111725 78.949131 
L 456.335016 73.877398 
L 458.558308 69.384226 
L 460.336941 66.21827 
L 462.115574 63.442023 
L 463.894207 61.062512 
L 465.67284 59.08576 
L 467.451474 57.51677 
L 468.785448 56.610049 
L 470.119423 55.936241 
L 471.453398 55.496305 
L 472.787373 55.290868 
L 474.121348 55.320221 
L 475.455323 55.584324 
L 476.789298 56.0828 
L 478.123273 56.814939 
L 479.457247 57.779699 
L 480.791222 58.975706 
L 482.569856 60.927109 
L 484.348489 63.281613 
L 486.127122 66.03326 
L 487.905755 69.175083 
L 490.129047 73.638842 
L 492.352338 78.682104 
L 494.575629 84.284926 
L 497.243579 91.715585 
L 499.911529 99.877688 
L 502.579479 108.724761 
L 505.692087 119.844669 
L 509.249353 133.499813 
L 512.80662 148.03204 
L 517.253203 167.205988 
L 522.589102 191.292129 
L 526.146368 207.749149 
L 526.591027 208.64 
L 528.814318 208.64 
L 528.814318 208.64 
" clip-path="url(#p04893b7aca)" style="fill: none; stroke: #ff0000; stroke-width: 1.5; stroke-linecap: square"/>
   </g>
   <g id="patch_3">
    <path d="M 62.39 390.04 
L 62.39 27.24 
" style="fill: none; stroke: #000000; stroke-width: 0.8; stroke-linejoin: miter; stroke-linecap: square"/>
   </g>
   <g id="patch_4">
    <path d="M 551.025 390.04 
L 551.025 27.24 
" style="fill: none; stroke: #000000; stroke-width: 0.8; stroke-linejoin: miter; stroke-linecap: square"/>
   </g>
   <g id="patch_5">
    <path d="M 62.39 390.04 
L 551.025 390.04 
" style="fill: none; stroke: #000000; stroke-width: 0.8; stroke-linejoin: miter; stroke-linecap: square"/>
   </g>
   <g id="patch_6">
    <path d="M 62.39 27.24 
L 551.025 27.24 
" style="fill: none; stroke: #000000; stroke-width: 0.8; stroke-linejoin: miter; stroke-linecap: square"/>
   </g>
   <g id="text_20">
    <!-- Rectificación de onda completa con transformador -->
    <g transform="translate(154.7875 21.24) scale(0.12 -0.12)">
     <defs>
      <path id="DejaVuSans-52" d="M 2841 2188 
Q 3044 2119 3236 1894 
Q 3428 1669 3622 1275 
L 4263 0 
L 3584 0 
L 2988 1197 
Q 2756 1666 2539 1819 
Q 2322 1972 1947 1972 
L 1259 1972 
L 1259 0 
L 628 0 
L 628 4666 
L 2053 4666 
Q 2853 4666 3247 4331 
Q 3641 3997 3641 3322 
Q 3641 2881 3436 2590 
Q 3231 2300 2841 2188 
z
M 1259 4147 
L 1259 2491 
L 2053 2491 
Q 2509 2491 2742 2702 
Q 2975 2913 2975 3322 
Q 2975 3731 2742 3939 
Q 2509 4147 2053 4147 
L 1259 4147 
z
" transform="scale(0.015625)"/>
      <path id="DejaVuSans-63" d="M 3122 3366 
L 3122 2828 
Q 2878 2963 2633 3030 
Q 2388 3097 2138 3097 
Q 1578 3097 1268 2742 
Q 959 2388 959 1747 
Q 959 1106 1268 751 
Q 1578 397 2138 397 
Q 2388 397 2633 464 
Q 2878 531 3122 666 
L 3122 134 
Q 2881 22 2623 -34 
Q 2366 -91 2075 -91 
Q 1284 -91 818 406 
Q 353 903 353 1747 
Q 353 2603 823 3093 
Q 1294 3584 2113 3584 
Q 2378 3584 2631 3529 
Q 2884 3475 3122 3366 
z
" transform="scale(0.015625)"/>
      <path id="DejaVuSans-66" d="M 2375 4863 
L 2375 4384 
L 1825 4384 
Q 1516 4384 1395 4259 
Q 1275 4134 1275 3809 
L 1275 3500 
L 2222 3500 
L 2222 3053 
L 1275 3053 
L 1275 0 
L 697 0 
L 697 3053 
L 147 3053 
L 147 3500 
L 697 3500 
L 697 3744 
Q 697 4328 969 4595 
Q 1241 4863 1831 4863 
L 2375 4863 
z
" transform="scale(0.015625)"/>
      <path id="DejaVuSans-f3" d="M 1959 3097 
Q 1497 3097 1228 2736 
Q 959 2375 959 1747 
Q 959 1119 1226 758 
Q 1494 397 1959 397 
Q 2419 397 2687 759 
Q 2956 1122 2956 1747 
Q 2956 2369 2687 2733 
Q 2419 3097 1959 3097 
z
M 1959 3584 
Q 2709 3584 3137 3096 
Q 3566 2609 3566 1747 
Q 3566 888 3137 398 
Q 2709 -91 1959 -91 
Q 1206 -91 779 398 
Q 353 888 353 1747 
Q 353 2609 779 3096 
Q 1206 3584 1959 3584 
z
M 2394 5119 
L 3016 5119 
L 1998 3944 
L 1519 3944 
L 2394 5119 
z
" transform="scale(0.015625)"/>
      <path id="DejaVuSans-6e" d="M 3513 2113 
L 3513 0 
L 2938 0 
L 2938 2094 
Q 2938 2591 2744 2837 
Q 2550 3084 2163 3084 
Q 1697 3084 1428 2787 
Q 1159 2491 1159 1978 
L 1159 0 
L 581 0 
L 581 3500 
L 1159 3500 
L 1159 2956 
Q 1366 3272 1645 3428 
Q 1925 3584 2291 3584 
Q 2894 3584 3203 3211 
Q 3513 2838 3513 2113 
z
" transform="scale(0.015625)"/>
      <path id="DejaVuSans-64" d="M 2906 2969 
L 2906 4863 
L 3481 4863 
L 3481 0 
L 2906 0 
L 2906 525 
Q 2725 213 2448 61 
Q 2172 -91 1784 -91 
Q 1150 -91 751 415 
Q 353 922 353 1747 
Q 353 2572 751 3078 
Q 1150 3584 1784 3584 
Q 2172 3584 2448 3432 
Q 2725 3281 2906 2969 
z
M 947 1747 
Q 947 1113 1208 752 
Q 1469 391 1925 391 
Q 2381 391 2643 752 
Q 2906 1113 2906 1747 
Q 2906 2381 2643 2742 
Q 2381 3103 1925 3103 
Q 1469 3103 1208 2742 
Q 947 2381 947 1747 
z
" transform="scale(0.015625)"/>
      <path id="DejaVuSans-72" d="M 2631 2963 
Q 2534 3019 2420 3045 
Q 2306 3072 2169 3072 
Q 1681 3072 1420 2755 
Q 1159 2438 1159 1844 
L 1159 0 
L 581 0 
L 581 3500 
L 1159 3500 
L 1159 2956 
Q 1341 3275 1631 3429 
Q 1922 3584 2338 3584 
Q 2397 3584 2469 3576 
Q 2541 3569 2628 3553 
L 2631 2963 
z
" transform="scale(0.015625)"/>
     </defs>
     <use xlink:href="#DejaVuSans-52"/>
     <use xlink:href="#DejaVuSans-65" x="64.982422"/>
     <use xlink:href="#DejaVuSans-63" x="126.505859"/>
     <use xlink:href="#DejaVuSans-74" x="181.486328"/>
     <use xlink:href="#DejaVuSans-69" x="220.695312"/>
     <use xlink:href="#DejaVuSans-66" x="248.478516"/>
     <use xlink:href="#DejaVuSans-69" x="283.683594"/>
     <use xlink:href="#DejaVuSans-63" x="311.466797"/>
     <use xlink:href="#DejaVuSans-61" x="366.447266"/>
     <use xlink:href="#DejaVuSans-63" x="427.726562"/>
     <use xlink:href="#DejaVuSans-69" x="482.707031"/>
     <use xlink:href="#DejaVuSans-f3" x="510.490234"/>
     <use xlink:href="#DejaVuSans-6e" x="571.671875"/>
     <use xlink:href="#DejaVuSans-20" x="635.050781"/>
     <use xlink:href="#DejaVuSans-64" x="666.837891"/>
     <use xlink:href="#DejaVuSans-65" x="730.314453"/>
     <use xlink:href="#DejaVuSans-20" x="791.837891"/>
     <use xlink:href="#DejaVuSans-6f" x="823.625"/>
     <use xlink:href="#DejaVuSans-6e" x="884.806641"/>
     <use xlink:href="#DejaVuSans-64" x="948.185547"/>
     <use xlink:href="#DejaVuSans-61" x="1011.662109"/>
     <use xlink:href="#DejaVuSans-20" x="1072.941406"/>
     <use xlink:href="#DejaVuSans-63" x="1104.728516"/>
     <use xlink:href="#DejaVuSans-6f" x="1159.708984"/>
     <use xlink:href="#DejaVuSans-6d" x="1220.890625"/>
     <use xlink:href="#DejaVuSans-70" x="1318.302734"/>
     <use xlink:href="#DejaVuSans-6c" x="1381.779297"/>
     <use xlink:href="#DejaVuSans-65" x="1409.5625"/>
     <use xlink:href="#DejaVuSans-74" x="1471.085938"/>
     <use xlink:href="#DejaVuSans-61" x="1510.294922"/>
     <use xlink:href="#DejaVuSans-20" x="1571.574219"/>
     <use xlink:href="#DejaVuSans-63" x="1603.361328"/>
     <use xlink:href="#DejaVuSans-6f" x="1658.341797"/>
     <use xlink:href="#DejaVuSans-6e" x="1719.523438"/>
     <use xlink:href="#DejaVuSans-20" x="1782.902344"/>
     <use xlink:href="#DejaVuSans-74" x="1814.689453"/>
     <use xlink:href="#DejaVuSans-72" x="1853.898438"/>
     <use xlink:href="#DejaVuSans-61" x="1895.011719"/>
     <use xlink:href="#DejaVuSans-6e" x="1956.291016"/>
     <use xlink:href="#DejaVuSans-73" x="2019.669922"/>
     <use xlink:href="#DejaVuSans-66" x="2071.769531"/>
     <use xlink:href="#DejaVuSans-6f" x="2106.974609"/>
     <use xlink:href="#DejaVuSans-72" x="2168.15625"/>
     <use xlink:href="#DejaVuSans-6d" x="2207.519531"/>
     <use xlink:href="#DejaVuSans-61" x="2304.931641"/>
     <use xlink:href="#DejaVuSans-64" x="2366.210938"/>
     <use xlink:href="#DejaVuSans-6f" x="2429.6875"/>
     <use xlink:href="#DejaVuSans-72" x="2490.869141"/>
    </g>
   </g>
   <g id="legend_1">
    <g id="patch_7">
     <path d="M 393.1 64.59625 
L 544.025 64.59625 
Q 546.025 64.59625 546.025 62.59625 
L 546.025 34.24 
Q 546.025 32.24 544.025 32.24 
L 393.1 32.24 
Q 391.1 32.24 391.1 34.24 
L 391.1 62.59625 
Q 391.1 64.59625 393.1 64.59625 
z
" style="fill: #ffffff; opacity: 0.8; stroke: #cccccc; stroke-linejoin: miter"/>
    </g>
    <g id="line2d_20">
     <path d="M 395.1 40.338437 
L 405.1 40.338437 
L 415.1 40.338437 
" style="fill: none; stroke: #0000ff; stroke-width: 1.5; stroke-linecap: square"/>
    </g>
    <g id="text_21">
     <!-- Voltaje de entrada -->
     <g transform="translate(423.1 43.838437) scale(0.1 -0.1)">
      <use xlink:href="#DejaVuSans-56"/>
      <use xlink:href="#DejaVuSans-6f" x="60.658203"/>
      <use xlink:href="#DejaVuSans-6c" x="121.839844"/>
      <use xlink:href="#DejaVuSans-74" x="149.623047"/>
      <use xlink:href="#DejaVuSans-61" x="188.832031"/>
      <use xlink:href="#DejaVuSans-6a" x="250.111328"/>
      <use xlink:href="#DejaVuSans-65" x="277.894531"/>
      <use xlink:href="#DejaVuSans-20" x="339.417969"/>
      <use xlink:href="#DejaVuSans-64" x="371.205078"/>
      <use xlink:href="#DejaVuSans-65" x="434.681641"/>
      <use xlink:href="#DejaVuSans-20" x="496.205078"/>
      <use xlink:href="#DejaVuSans-65" x="527.992188"/>
      <use xlink:href="#DejaVuSans-6e" x="589.515625"/>
      <use xlink:href="#DejaVuSans-74" x="652.894531"/>
      <use xlink:href="#DejaVuSans-72" x="692.103516"/>
      <use xlink:href="#DejaVuSans-61" x="733.216797"/>
      <use xlink:href="#DejaVuSans-64" x="794.496094"/>
      <use xlink:href="#DejaVuSans-61" x="857.972656"/>
     </g>
    </g>
    <g id="line2d_21">
     <path d="M 395.1 55.016563 
L 405.1 55.016563 
L 415.1 55.016563 
" style="fill: none; stroke: #ff0000; stroke-width: 1.5; stroke-linecap: square"/>
    </g>
    <g id="text_22">
     <!-- Voltaje en la resistencia -->
     <g transform="translate(423.1 58.516563) scale(0.1 -0.1)">
      <use xlink:href="#DejaVuSans-56"/>
      <use xlink:href="#DejaVuSans-6f" x="60.658203"/>
      <use xlink:href="#DejaVuSans-6c" x="121.839844"/>
      <use xlink:href="#DejaVuSans-74" x="149.623047"/>
      <use xlink:href="#DejaVuSans-61" x="188.832031"/>
      <use xlink:href="#DejaVuSans-6a" x="250.111328"/>
      <use xlink:href="#DejaVuSans-65" x="277.894531"/>
      <use xlink:href="#DejaVuSans-20" x="339.417969"/>
      <use xlink:href="#DejaVuSans-65" x="371.205078"/>
      <use xlink:href="#DejaVuSans-6e" x="432.728516"/>
      <use xlink:href="#DejaVuSans-20" x="496.107422"/>
      <use xlink:href="#DejaVuSans-6c" x="527.894531"/>
      <use xlink:href="#DejaVuSans-61" x="555.677734"/>
      <use xlink:href="#DejaVuSans-20" x="616.957031"/>
      <use xlink:href="#DejaVuSans-72" x="648.744141"/>
      <use xlink:href="#DejaVuSans-65" x="687.607422"/>
      <use xlink:href="#DejaVuSans-73" x="749.130859"/>
      <use xlink:href="#DejaVuSans-69" x="801.230469"/>
      <use xlink:href="#DejaVuSans-73" x="829.013672"/>
      <use xlink:href="#DejaVuSans-74" x="881.113281"/>
      <use xlink:href="#DejaVuSans-65" x="920.322266"/>
      <use xlink:href="#DejaVuSans-6e" x="981.845703"/>
      <use xlink:href="#DejaVuSans-63" x="1045.224609"/>
      <use xlink:href="#DejaVuSans-69" x="1100.205078"/>
      <use xlink:href="#DejaVuSans-61" x="1127.988281"/>
     </g>
    </g>
   </g>
  </g>
 </g>
 <defs>
  <clipPath id="p04893b7aca">
   <rect x="62.39" y="27.24" width="488.635" height="362.8"/>
  </clipPath>
 </defs>
</svg>
