%!PS-Adobe-3.0 EPSF-3.0
%%Creator: cairo 1.13.1 (http://cairographics.org)
%%CreationDate: Sun Jan 17 01:02:20 2016
%%Pages: 1
%%DocumentData: Clean7Bit
%%LanguageLevel: 2
%%BoundingBox: 0 -1 796 125
%%EndComments
%%BeginProlog
save
50 dict begin
/q { gsave } bind def
/Q { grestore } bind def
/cm { 6 array astore concat } bind def
/w { setlinewidth } bind def
/J { setlinecap } bind def
/j { setlinejoin } bind def
/M { setmiterlimit } bind def
/d { setdash } bind def
/m { moveto } bind def
/l { lineto } bind def
/c { curveto } bind def
/h { closepath } bind def
/re { exch dup neg 3 1 roll 5 3 roll moveto 0 rlineto
      0 exch rlineto 0 rlineto closepath } bind def
/S { stroke } bind def
/f { fill } bind def
/f* { eofill } bind def
/n { newpath } bind def
/W { clip } bind def
/W* { eoclip } bind def
/BT { } bind def
/ET { } bind def
/pdfmark where { pop globaldict /?pdfmark /exec load put }
    { globaldict begin /?pdfmark /pop load def /pdfmark
    /cleartomark load def end } ifelse
/BDC { mark 3 1 roll /BDC pdfmark } bind def
/EMC { mark /EMC pdfmark } bind def
/cairo_store_point { /cairo_point_y exch def /cairo_point_x exch def } def
/Tj { show currentpoint cairo_store_point } bind def
/TJ {
  {
    dup
    type /stringtype eq
    { show } { -0.001 mul 0 cairo_font_matrix dtransform rmoveto } ifelse
  } forall
  currentpoint cairo_store_point
} bind def
/cairo_selectfont { cairo_font_matrix aload pop pop pop 0 0 6 array astore
    cairo_font exch selectfont cairo_point_x cairo_point_y moveto } bind def
/Tf { pop /cairo_font exch def /cairo_font_matrix where
      { pop cairo_selectfont } if } bind def
/Td { matrix translate cairo_font_matrix matrix concatmatrix dup
      /cairo_font_matrix exch def dup 4 get exch 5 get cairo_store_point
      /cairo_font where { pop cairo_selectfont } if } bind def
/Tm { 2 copy 8 2 roll 6 array astore /cairo_font_matrix exch def
      cairo_store_point /cairo_font where { pop cairo_selectfont } if } bind def
/g { setgray } bind def
/rg { setrgbcolor } bind def
/d1 { setcachedevice } bind def
%%EndProlog
%%BeginSetup
%%EndSetup
%%Page: 1 1
%%BeginPageSetup
%%PageBoundingBox: 0 -1 796 125
%%EndPageSetup
q 0 -1 796 126 rectclip q
0 g
0.3985 w
0 J
0 j
[] 0.0 d
10 M q 1 0 0 1 0 124.748749 cm
30.801 -108.688 m 30.801 -78.07 l 30.801 -54.262 m 30.801 -23.645 l 15.086
 -75.238 m 15.086 -57.094 l 30.801 -23.645 m 57.445 -23.645 l 89.195 -23.645
 m 115.84 -23.645 l 115.84 -23.645 m 142.488 -23.645 l 174.234 -23.645 m
 200.883 -23.645 l 200.883 -23.645 m 239.434 -23.645 l 247.371 -23.645 m
 285.922 -23.645 l 285.922 -23.645 m 342.613 -23.645 l 342.613 -23.645 m
 369.262 -23.645 l 401.008 -23.645 m 427.656 -23.645 l 427.656 -23.645 m
 466.207 -23.645 l 474.145 -23.645 m 512.695 -23.645 l 512.695 -23.645 m
 569.391 -23.645 l 569.391 -23.645 m 596.035 -23.645 l 627.785 -23.645 m
 654.43 -23.645 l 654.43 -23.645 m 692.98 -23.645 l 700.918 -23.645 m 739.469
 -23.645 l 739.469 -23.645 m 739.469 -50.293 l 739.469 -82.039 m 739.469
 -108.688 l S Q
0.797 w
q 1 0 0 1 0 124.748749 cm
18.895 -66.168 m 18.895 -72.742 24.227 -78.07 30.801 -78.07 c 37.375 -78.07
 42.707 -72.742 42.707 -66.168 c 42.707 -59.59 37.375 -54.262 30.801 -54.262
 c 24.227 -54.262 18.895 -59.59 18.895 -66.168 c h
30.801 -78.07 m 30.801 -54.262 l S Q
32.387 101.104 m 32.387 101.979 31.676 102.69 30.801 102.69 c 29.922 102.69
 29.215 101.979 29.215 101.104 c 29.215 100.225 29.922 99.514 30.801 99.514
 c 31.676 99.514 32.387 100.225 32.387 101.104 c h
32.387 101.104 m f
0.3985 w
q 1 0 0 1 0 124.748749 cm
32.387 -23.645 m 32.387 -22.77 31.676 -22.059 30.801 -22.059 c 29.922 -22.059
 29.215 -22.77 29.215 -23.645 c 29.215 -24.523 29.922 -25.234 30.801 -25.234
 c 31.676 -25.234 32.387 -24.523 32.387 -23.645 c h
32.387 -23.645 m S Q
15.086 65.921 m 17.07 65.921 l 15.086 70.135 l 13.102 65.921 l 15.086 65.921
 l f
q 1 0 0 1 0 124.748749 cm
15.086 -58.828 m 17.07 -58.828 l 15.086 -54.613 l 13.102 -58.828 l 15.086
 -58.828 l S Q
6 61.007 m 6.141 61.382 6.406 61.663 7.094 61.678 c 7.094 61.991 l 6.781
 61.96 6.375 61.96 6.125 61.96 c 5.828 61.96 5.25 61.975 4.984 61.991 c 
4.984 61.678 l 5.5 61.663 5.719 61.413 5.719 61.178 c 5.719 61.1 5.688 61.038
 5.672 60.975 c 3.844 56.178 l 1.938 61.21 l 1.875 61.35 1.875 61.366 1.875
 61.382 c 1.875 61.678 2.438 61.678 2.688 61.678 c 2.688 61.991 l 2.328 
61.96 1.641 61.96 1.266 61.96 c 0.797 61.96 0.359 61.975 0 61.991 c 0 61.678
 l 0.656 61.678 0.844 61.678 0.984 61.303 c 3.297 55.178 l 3.359 54.991 
3.406 54.96 3.547 54.96 c 3.703 54.96 3.734 55.007 3.781 55.147 c h
6 61.007 m f
10.223 61.553 m 10.223 61.803 10.223 61.819 9.988 61.819 c 9.363 61.178
 8.488 61.178 8.176 61.178 c 8.176 60.866 l 8.379 60.866 8.957 60.866 9.473
 61.132 c 9.473 55.96 l 9.473 55.6 9.441 55.491 8.551 55.491 c 8.238 55.491
 l 8.238 55.178 l 8.582 55.21 9.441 55.21 9.848 55.21 c 10.238 55.21 11.113
 55.21 11.457 55.178 c 11.457 55.491 l 11.145 55.491 l 10.238 55.491 10.223
 55.6 10.223 55.96 c h
10.223 61.553 m f
0.797 w
q 1 0 0 1 0 124.748749 cm
57.445 -23.645 m 60.094 -17.691 l 65.383 -29.598 l 70.676 -17.691 l 75.965
 -29.598 l 81.258 -17.691 l 86.547 -29.598 l 89.195 -23.645 l S Q
69.395 114.686 m 69.395 117.264 l 69.395 117.499 69.395 117.624 69.613 
117.655 c 69.707 117.671 70.004 117.671 70.207 117.671 c 71.098 117.671 
72.207 117.624 72.207 116.186 c 72.207 115.499 71.973 114.686 70.504 114.686
 c h
71.504 114.561 m 72.457 114.796 73.238 115.405 73.238 116.186 c 73.238 
117.139 72.098 117.983 70.645 117.983 c 67.504 117.983 l 67.504 117.671 
l 67.754 117.671 l 68.52 117.671 68.535 117.561 68.535 117.202 c 68.535 
111.952 l 68.535 111.592 68.52 111.483 67.754 111.483 c 67.504 111.483 l
 67.504 111.171 l 67.863 111.202 68.582 111.202 68.957 111.202 c 69.348 
111.202 70.066 111.202 70.426 111.171 c 70.426 111.483 l 70.176 111.483 
l 69.41 111.483 69.395 111.592 69.395 111.952 c 69.395 114.467 l 70.535 
114.467 l 70.691 114.467 71.113 114.467 71.473 114.124 c 71.848 113.78 71.848
 113.467 71.848 112.796 c 71.848 112.155 71.848 111.749 72.254 111.374 c
 72.66 111.014 73.207 110.952 73.504 110.952 c 74.285 110.952 74.457 111.764
 74.457 112.046 c 74.457 112.108 74.457 112.217 74.332 112.217 c 74.223 
112.217 74.223 112.124 74.207 112.061 c 74.145 111.342 73.801 111.171 73.551
 111.171 c 73.066 111.171 72.988 111.686 72.848 112.608 c 72.707 113.405
 l 72.535 114.046 72.051 114.374 71.504 114.561 c h
71.504 114.561 m f
77.434 117.546 m 77.434 117.796 77.434 117.811 77.199 117.811 c 76.574 
117.171 75.699 117.171 75.387 117.171 c 75.387 116.858 l 75.59 116.858 76.168
 116.858 76.684 117.124 c 76.684 111.952 l 76.684 111.592 76.652 111.483
 75.762 111.483 c 75.449 111.483 l 75.449 111.171 l 75.793 111.202 76.652
 111.202 77.059 111.202 c 77.449 111.202 78.324 111.202 78.668 111.171 c
 78.668 111.483 l 78.355 111.483 l 77.449 111.483 77.434 111.592 77.434 
111.952 c h
77.434 117.546 m f
117.43 101.104 m 117.43 101.979 116.719 102.69 115.84 102.69 c 114.965 
102.69 114.254 101.979 114.254 101.104 c 114.254 100.225 114.965 99.514 
115.84 99.514 c 116.719 99.514 117.43 100.225 117.43 101.104 c h
117.43 101.104 m f
0.3985 w
q 1 0 0 1 0 124.748749 cm
117.43 -23.645 m 117.43 -22.77 116.719 -22.059 115.84 -22.059 c 114.965
 -22.059 114.254 -22.77 114.254 -23.645 c 114.254 -24.523 114.965 -25.234
 115.84 -25.234 c 116.719 -25.234 117.43 -24.523 117.43 -23.645 c h
117.43 -23.645 m S Q
0.797 w
q 1 0 0 1 0 124.748749 cm
142.488 -23.645 m 142.926 -20.344 144.691 -17.691 146.785 -17.691 c 148.879
 -17.691 150.645 -20.344 151.086 -23.645 c 151.527 -26.949 150.641 -29.598
 149.43 -29.598 c 148.219 -29.598 147.336 -26.949 147.777 -23.645 c 148.219
 -20.344 149.984 -17.691 152.078 -17.691 c 154.172 -17.691 155.934 -20.344
 156.375 -23.645 c 156.816 -26.949 155.934 -29.598 154.723 -29.598 c 153.512
 -29.598 152.629 -26.949 153.07 -23.645 c 153.512 -20.344 155.277 -17.691
 157.367 -17.691 c 159.461 -17.691 161.227 -20.344 161.668 -23.645 c 162.109
 -26.949 161.227 -29.598 160.016 -29.598 c 158.805 -29.598 157.918 -26.949
 158.359 -23.645 c 158.801 -20.344 160.566 -17.691 162.66 -17.691 c 164.754
 -17.691 166.52 -20.344 166.961 -23.645 c 167.398 -26.949 166.516 -29.598
 165.305 -29.598 c 164.094 -29.598 163.211 -26.949 163.652 -23.645 c 164.094
 -20.344 165.859 -17.691 167.953 -17.691 c 170.043 -17.691 171.809 -20.344
 172.25 -23.645 c 174.234 -23.645 l S Q
158.551 113.749 m 158.301 113.749 l 158.191 112.733 158.051 111.483 156.301
 111.483 c 155.488 111.483 l 155.02 111.483 155.004 111.546 155.004 111.874
 c 155.004 117.186 l 155.004 117.53 155.004 117.671 155.941 117.671 c 156.27
 117.671 l 156.27 117.983 l 155.91 117.952 155.004 117.952 154.598 117.952
 c 154.207 117.952 153.426 117.952 153.082 117.983 c 153.082 117.671 l 153.316
 117.671 l 154.082 117.671 154.113 117.561 154.113 117.202 c 154.113 111.952
 l 154.113 111.592 154.082 111.483 153.316 111.483 c 153.082 111.483 l 153.082
 111.171 l 158.27 111.171 l h
158.551 113.749 m f
161.918 117.546 m 161.918 117.796 161.918 117.811 161.684 117.811 c 161.059
 117.171 160.184 117.171 159.871 117.171 c 159.871 116.858 l 160.074 116.858
 160.652 116.858 161.168 117.124 c 161.168 111.952 l 161.168 111.592 161.137
 111.483 160.246 111.483 c 159.934 111.483 l 159.934 111.171 l 160.277 111.202
 161.137 111.202 161.543 111.202 c 161.934 111.202 162.809 111.202 163.152
 111.171 c 163.152 111.483 l 162.84 111.483 l 161.934 111.483 161.918 111.592
 161.918 111.952 c h
161.918 117.546 m f
202.469 101.104 m 202.469 101.979 201.758 102.69 200.883 102.69 c 200.004
 102.69 199.293 101.979 199.293 101.104 c 199.293 100.225 200.004 99.514
 200.883 99.514 c 201.758 99.514 202.469 100.225 202.469 101.104 c h
202.469 101.104 m f
0.3985 w
q 1 0 0 1 0 124.748749 cm
202.469 -23.645 m 202.469 -22.77 201.758 -22.059 200.883 -22.059 c 200.004
 -22.059 199.293 -22.77 199.293 -23.645 c 199.293 -24.523 200.004 -25.234
 200.883 -25.234 c 201.758 -25.234 202.469 -24.523 202.469 -23.645 c h
202.469 -23.645 m S Q
0.797 w
q 1 0 0 1 0 124.748749 cm
239.434 -11.738 m 239.434 -35.551 l 247.371 -11.738 m 247.371 -35.551 l
 S Q
237.871 121.124 m 237.871 119.061 239.48 117.499 241.34 117.499 c 242.965
 117.499 243.934 118.889 243.934 120.046 c 243.934 120.139 243.934 120.217
 243.809 120.217 c 243.699 120.217 243.699 120.155 243.684 120.046 c 243.605
 118.624 242.543 117.811 241.449 117.811 c 240.84 117.811 238.887 118.139
 238.887 121.124 c 238.887 124.092 240.84 124.436 241.449 124.436 c 242.527
 124.436 243.418 123.53 243.621 122.077 c 243.637 121.936 243.637 121.905
 243.777 121.905 c 243.934 121.905 243.934 121.936 243.934 122.139 c 243.934
 124.499 l 243.934 124.671 243.934 124.749 243.824 124.749 c 243.793 124.749
 243.746 124.749 243.668 124.624 c 243.168 123.889 l 242.809 124.249 242.293
 124.749 241.34 124.749 c 239.465 124.749 237.871 123.155 237.871 121.124
 c h
237.871 121.124 m f
247.441 124.092 m 247.441 124.342 247.441 124.358 247.207 124.358 c 246.582
 123.717 245.707 123.717 245.395 123.717 c 245.395 123.405 l 245.598 123.405
 246.176 123.405 246.691 123.671 c 246.691 118.499 l 246.691 118.139 246.66
 118.03 245.77 118.03 c 245.457 118.03 l 245.457 117.717 l 245.801 117.749
 246.66 117.749 247.066 117.749 c 247.457 117.749 248.332 117.749 248.676
 117.717 c 248.676 118.03 l 248.363 118.03 l 247.457 118.03 247.441 118.139
 247.441 118.499 c h
247.441 124.092 m f
q 1 0 0 1 0 124.748749 cm
369.262 -23.645 m 369.703 -20.344 371.469 -17.691 373.559 -17.691 c 375.652
 -17.691 377.418 -20.344 377.859 -23.645 c 378.301 -26.949 377.418 -29.598
 376.207 -29.598 c 374.996 -29.598 374.109 -26.949 374.551 -23.645 c 374.992
 -20.344 376.758 -17.691 378.852 -17.691 c 380.945 -17.691 382.711 -20.344
 383.152 -23.645 c 383.59 -26.949 382.707 -29.598 381.496 -29.598 c 380.285
 -29.598 379.402 -26.949 379.844 -23.645 c 380.285 -20.344 382.051 -17.691
 384.145 -17.691 c 386.234 -17.691 388 -20.344 388.441 -23.645 c 388.883
 -26.949 388 -29.598 386.789 -29.598 c 385.578 -29.598 384.695 -26.949 385.137
 -23.645 c 385.578 -20.344 387.34 -17.691 389.434 -17.691 c 391.527 -17.691
 393.293 -20.344 393.734 -23.645 c 394.176 -26.949 393.289 -29.598 392.078
 -29.598 c 390.867 -29.598 389.984 -26.949 390.426 -23.645 c 390.867 -20.344
 392.633 -17.691 394.727 -17.691 c 396.82 -17.691 398.586 -20.344 399.023
 -23.645 c 401.008 -23.645 l S Q
385.324 113.749 m 385.074 113.749 l 384.965 112.733 384.824 111.483 383.074
 111.483 c 382.262 111.483 l 381.793 111.483 381.777 111.546 381.777 111.874
 c 381.777 117.186 l 381.777 117.53 381.777 117.671 382.715 117.671 c 383.043
 117.671 l 383.043 117.983 l 382.684 117.952 381.777 117.952 381.371 117.952
 c 380.98 117.952 380.199 117.952 379.855 117.983 c 379.855 117.671 l 380.09
 117.671 l 380.855 117.671 380.887 117.561 380.887 117.202 c 380.887 111.952
 l 380.887 111.592 380.855 111.483 380.09 111.483 c 379.855 111.483 l 379.855
 111.171 l 385.043 111.171 l h
385.324 113.749 m f
388.645 114.686 m 389.457 114.952 390.035 115.639 390.035 116.436 c 390.035
 117.249 389.16 117.811 388.207 117.811 c 387.207 117.811 386.441 117.217
 386.441 116.452 c 386.441 116.124 386.66 115.936 386.957 115.936 c 387.254
 115.936 387.457 116.155 387.457 116.452 c 387.457 116.936 386.988 116.936
 386.848 116.936 c 387.145 117.436 387.801 117.561 388.16 117.561 c 388.582
 117.561 389.129 117.342 389.129 116.452 c 389.129 116.327 389.098 115.749
 388.848 115.311 c 388.551 114.827 388.207 114.796 387.957 114.796 c 387.879
 114.78 387.645 114.764 387.566 114.764 c 387.488 114.749 387.426 114.733
 387.426 114.639 c 387.426 114.53 387.488 114.53 387.66 114.53 c 388.098
 114.53 l 388.91 114.53 389.285 113.858 389.285 112.874 c 389.285 111.514
 388.598 111.233 388.16 111.233 c 387.723 111.233 386.973 111.405 386.629
 111.983 c 386.973 111.936 387.285 112.155 387.285 112.53 c 387.285 112.889
 387.02 113.092 386.738 113.092 c 386.488 113.092 386.176 112.952 386.176
 112.514 c 386.176 111.608 387.098 110.952 388.191 110.952 c 389.41 110.952
 390.316 111.858 390.316 112.874 c 390.316 113.686 389.676 114.467 388.645
 114.686 c h
388.645 114.686 m f
429.242 101.104 m 429.242 101.979 428.531 102.69 427.656 102.69 c 426.777
 102.69 426.07 101.979 426.07 101.104 c 426.07 100.225 426.777 99.514 427.656
 99.514 c 428.531 99.514 429.242 100.225 429.242 101.104 c h
429.242 101.104 m f
0.3985 w
q 1 0 0 1 0 124.748749 cm
429.242 -23.645 m 429.242 -22.77 428.531 -22.059 427.656 -22.059 c 426.777
 -22.059 426.07 -22.77 426.07 -23.645 c 426.07 -24.523 426.777 -25.234 427.656
 -25.234 c 428.531 -25.234 429.242 -24.523 429.242 -23.645 c h
429.242 -23.645 m S Q
0.797 w
q 1 0 0 1 0 124.748749 cm
466.207 -11.738 m 466.207 -35.551 l 474.145 -11.738 m 474.145 -35.551 l
 S Q
464.645 121.124 m 464.645 119.061 466.254 117.499 468.113 117.499 c 469.738
 117.499 470.707 118.889 470.707 120.046 c 470.707 120.139 470.707 120.217
 470.582 120.217 c 470.473 120.217 470.473 120.155 470.457 120.046 c 470.379
 118.624 469.316 117.811 468.223 117.811 c 467.613 117.811 465.66 118.139
 465.66 121.124 c 465.66 124.092 467.613 124.436 468.223 124.436 c 469.301
 124.436 470.191 123.53 470.395 122.077 c 470.41 121.936 470.41 121.905 
470.551 121.905 c 470.707 121.905 470.707 121.936 470.707 122.139 c 470.707
 124.499 l 470.707 124.671 470.707 124.749 470.598 124.749 c 470.566 124.749
 470.52 124.749 470.441 124.624 c 469.941 123.889 l 469.582 124.249 469.066
 124.749 468.113 124.749 c 466.238 124.749 464.645 123.155 464.645 121.124
 c h
464.645 121.124 m f
474.168 121.233 m 474.98 121.499 475.559 122.186 475.559 122.983 c 475.559
 123.796 474.684 124.358 473.73 124.358 c 472.73 124.358 471.965 123.764
 471.965 122.999 c 471.965 122.671 472.184 122.483 472.48 122.483 c 472.777
 122.483 472.98 122.702 472.98 122.999 c 472.98 123.483 472.512 123.483 
472.371 123.483 c 472.668 123.983 473.324 124.108 473.684 124.108 c 474.105
 124.108 474.652 123.889 474.652 122.999 c 474.652 122.874 474.621 122.296
 474.371 121.858 c 474.074 121.374 473.73 121.342 473.48 121.342 c 473.402
 121.327 473.168 121.311 473.09 121.311 c 473.012 121.296 472.949 121.28
 472.949 121.186 c 472.949 121.077 473.012 121.077 473.184 121.077 c 473.621
 121.077 l 474.434 121.077 474.809 120.405 474.809 119.421 c 474.809 118.061
 474.121 117.78 473.684 117.78 c 473.246 117.78 472.496 117.952 472.152 
118.53 c 472.496 118.483 472.809 118.702 472.809 119.077 c 472.809 119.436
 472.543 119.639 472.262 119.639 c 472.012 119.639 471.699 119.499 471.699
 119.061 c 471.699 118.155 472.621 117.499 473.715 117.499 c 474.934 117.499
 475.84 118.405 475.84 119.421 c 475.84 120.233 475.199 121.014 474.168 
121.233 c h
474.168 121.233 m f
q 1 0 0 1 0 124.748749 cm
596.035 -23.645 m 596.477 -20.344 598.242 -17.691 600.336 -17.691 c 602.426
 -17.691 604.191 -20.344 604.633 -23.645 c 605.074 -26.949 604.191 -29.598
 602.98 -29.598 c 601.77 -29.598 600.887 -26.949 601.328 -23.645 c 601.77
 -20.344 603.535 -17.691 605.625 -17.691 c 607.719 -17.691 609.484 -20.344
 609.926 -23.645 c 610.367 -26.949 609.484 -29.598 608.273 -29.598 c 607.063
 -29.598 606.176 -26.949 606.617 -23.645 c 607.059 -20.344 608.824 -17.691
 610.918 -17.691 c 613.012 -17.691 614.777 -20.344 615.215 -23.645 c 615.656
 -26.949 614.773 -29.598 613.563 -29.598 c 612.352 -29.598 611.469 -26.949
 611.91 -23.645 c 612.352 -20.344 614.117 -17.691 616.207 -17.691 c 618.301
 -17.691 620.066 -20.344 620.508 -23.645 c 620.949 -26.949 620.066 -29.598
 618.855 -29.598 c 617.645 -29.598 616.762 -26.949 617.199 -23.645 c 617.641
 -20.344 619.406 -17.691 621.5 -17.691 c 623.594 -17.691 625.359 -20.344
 625.801 -23.645 c 627.785 -23.645 l S Q
612.094 113.749 m 611.844 113.749 l 611.734 112.733 611.594 111.483 609.844
 111.483 c 609.031 111.483 l 608.562 111.483 608.547 111.546 608.547 111.874
 c 608.547 117.186 l 608.547 117.53 608.547 117.671 609.484 117.671 c 609.812
 117.671 l 609.812 117.983 l 609.453 117.952 608.547 117.952 608.141 117.952
 c 607.75 117.952 606.969 117.952 606.625 117.983 c 606.625 117.671 l 606.859
 117.671 l 607.625 117.671 607.656 117.561 607.656 117.202 c 607.656 111.952
 l 607.656 111.592 607.625 111.483 606.859 111.483 c 606.625 111.483 l 606.625
 111.171 l 611.812 111.171 l h
612.094 113.749 m f
616.992 113.171 m 616.992 114.358 616.18 115.358 615.102 115.358 c 614.633
 115.358 614.195 115.202 613.836 114.842 c 613.836 116.796 l 614.039 116.733
 614.367 116.671 614.68 116.671 c 615.914 116.671 616.617 117.577 616.617
 117.702 c 616.617 117.764 616.586 117.811 616.508 117.811 c 616.508 117.811
 616.477 117.811 616.43 117.78 c 616.227 117.686 615.742 117.483 615.07 
117.483 c 614.68 117.483 614.211 117.561 613.742 117.764 c 613.664 117.796
 613.648 117.796 613.633 117.796 c 613.523 117.796 613.523 117.717 613.523
 117.561 c 613.523 114.608 l 613.523 114.436 613.523 114.358 613.664 114.358
 c 613.742 114.358 613.758 114.374 613.805 114.436 c 613.914 114.592 614.273
 115.139 615.086 115.139 c 615.602 115.139 615.852 114.686 615.93 114.499
 c 616.086 114.124 616.117 113.749 616.117 113.249 c 616.117 112.889 616.117
 112.296 615.867 111.874 c 615.633 111.483 615.258 111.233 614.805 111.233
 c 614.086 111.233 613.508 111.764 613.336 112.342 c 613.367 112.342 613.398
 112.327 613.508 112.327 c 613.836 112.327 614.008 112.577 614.008 112.811
 c 614.008 113.061 613.836 113.311 613.508 113.311 c 613.367 113.311 613.023
 113.233 613.023 112.78 c 613.023 111.921 613.711 110.952 614.82 110.952
 c 615.977 110.952 616.992 111.905 616.992 113.171 c h
616.992 113.171 m f
656.016 101.104 m 656.016 101.979 655.305 102.69 654.43 102.69 c 653.555
 102.69 652.844 101.979 652.844 101.104 c 652.844 100.225 653.555 99.514
 654.43 99.514 c 655.305 99.514 656.016 100.225 656.016 101.104 c h
656.016 101.104 m f
0.3985 w
q 1 0 0 1 0 124.748749 cm
656.016 -23.645 m 656.016 -22.77 655.305 -22.059 654.43 -22.059 c 653.555
 -22.059 652.844 -22.77 652.844 -23.645 c 652.844 -24.523 653.555 -25.234
 654.43 -25.234 c 655.305 -25.234 656.016 -24.523 656.016 -23.645 c h
656.016 -23.645 m S Q
0.797 w
q 1 0 0 1 0 124.748749 cm
692.98 -11.738 m 692.98 -35.551 l 700.918 -11.738 m 700.918 -35.551 l S Q
691.414 121.124 m 691.414 119.061 693.023 117.499 694.883 117.499 c 696.508
 117.499 697.477 118.889 697.477 120.046 c 697.477 120.139 697.477 120.217
 697.352 120.217 c 697.242 120.217 697.242 120.155 697.227 120.046 c 697.148
 118.624 696.086 117.811 694.992 117.811 c 694.383 117.811 692.43 118.139
 692.43 121.124 c 692.43 124.092 694.383 124.436 694.992 124.436 c 696.07
 124.436 696.961 123.53 697.164 122.077 c 697.18 121.936 697.18 121.905 
697.32 121.905 c 697.477 121.905 697.477 121.936 697.477 122.139 c 697.477
 124.499 l 697.477 124.671 697.477 124.749 697.367 124.749 c 697.336 124.749
 697.289 124.749 697.211 124.624 c 696.711 123.889 l 696.352 124.249 695.836
 124.749 694.883 124.749 c 693.008 124.749 691.414 123.155 691.414 121.124
 c h
691.414 121.124 m f
702.516 119.717 m 702.516 120.905 701.703 121.905 700.625 121.905 c 700.156
 121.905 699.719 121.749 699.359 121.389 c 699.359 123.342 l 699.562 123.28
 699.891 123.217 700.203 123.217 c 701.438 123.217 702.141 124.124 702.141
 124.249 c 702.141 124.311 702.109 124.358 702.031 124.358 c 702.031 124.358
 702 124.358 701.953 124.327 c 701.75 124.233 701.266 124.03 700.594 124.03
 c 700.203 124.03 699.734 124.108 699.266 124.311 c 699.188 124.342 699.172
 124.342 699.156 124.342 c 699.047 124.342 699.047 124.264 699.047 124.108
 c 699.047 121.155 l 699.047 120.983 699.047 120.905 699.188 120.905 c 699.266
 120.905 699.281 120.921 699.328 120.983 c 699.438 121.139 699.797 121.686
 700.609 121.686 c 701.125 121.686 701.375 121.233 701.453 121.046 c 701.609
 120.671 701.641 120.296 701.641 119.796 c 701.641 119.436 701.641 118.842
 701.391 118.421 c 701.156 118.03 700.781 117.78 700.328 117.78 c 699.609
 117.78 699.031 118.311 698.859 118.889 c 698.891 118.889 698.922 118.874
 699.031 118.874 c 699.359 118.874 699.531 119.124 699.531 119.358 c 699.531
 119.608 699.359 119.858 699.031 119.858 c 698.891 119.858 698.547 119.78
 698.547 119.327 c 698.547 118.467 699.234 117.499 700.344 117.499 c 701.5
 117.499 702.516 118.452 702.516 119.717 c h
702.516 119.717 m f
741.059 101.104 m 741.059 101.979 740.348 102.69 739.469 102.69 c 738.594
 102.69 737.883 101.979 737.883 101.104 c 737.883 100.225 738.594 99.514
 739.469 99.514 c 740.348 99.514 741.059 100.225 741.059 101.104 c h
741.059 101.104 m f
0.3985 w
q 1 0 0 1 0 124.748749 cm
741.059 -23.645 m 741.059 -22.77 740.348 -22.059 739.469 -22.059 c 738.594
 -22.059 737.883 -22.77 737.883 -23.645 c 737.883 -24.523 738.594 -25.234
 739.469 -25.234 c 740.348 -25.234 741.059 -24.523 741.059 -23.645 c h
741.059 -23.645 m S Q
0.797 w
q 1 0 0 1 0 124.748749 cm
739.469 -50.293 m 745.422 -52.938 l 733.516 -58.23 l 745.422 -63.52 l 733.516
 -68.813 l 745.422 -74.102 l 733.516 -79.395 l 739.469 -82.039 l S Q
751.762 58.694 m 751.762 61.272 l 751.762 61.507 751.762 61.632 751.98 
61.663 c 752.074 61.678 752.371 61.678 752.574 61.678 c 753.465 61.678 754.574
 61.632 754.574 60.194 c 754.574 59.507 754.34 58.694 752.871 58.694 c h
753.871 58.569 m 754.824 58.803 755.605 59.413 755.605 60.194 c 755.605
 61.147 754.465 61.991 753.012 61.991 c 749.871 61.991 l 749.871 61.678 
l 750.121 61.678 l 750.887 61.678 750.902 61.569 750.902 61.21 c 750.902
 55.96 l 750.902 55.6 750.887 55.491 750.121 55.491 c 749.871 55.491 l 749.871
 55.178 l 750.23 55.21 750.949 55.21 751.324 55.21 c 751.715 55.21 752.434
 55.21 752.793 55.178 c 752.793 55.491 l 752.543 55.491 l 751.777 55.491
 751.762 55.6 751.762 55.96 c 751.762 58.475 l 752.902 58.475 l 753.059 
58.475 753.48 58.475 753.84 58.132 c 754.215 57.788 754.215 57.475 754.215
 56.803 c 754.215 56.163 754.215 55.757 754.621 55.382 c 755.027 55.022 
755.574 54.96 755.871 54.96 c 756.652 54.96 756.824 55.772 756.824 56.053
 c 756.824 56.116 756.824 56.225 756.699 56.225 c 756.59 56.225 756.59 56.132
 756.574 56.069 c 756.512 55.35 756.168 55.178 755.918 55.178 c 755.434 
55.178 755.355 55.694 755.215 56.616 c 755.074 57.413 l 754.902 58.053 754.418
 58.382 753.871 58.569 c h
753.871 58.569 m f
758.129 55.944 m 759.191 56.975 l 760.738 58.35 761.332 58.882 761.332 
59.882 c 761.332 61.022 760.441 61.819 759.223 61.819 c 758.098 61.819 757.363
 60.897 757.363 60.007 c 757.363 59.46 757.863 59.46 757.895 59.46 c 758.066
 59.46 758.41 59.569 758.41 59.991 c 758.41 60.241 758.223 60.507 757.879
 60.507 c 757.801 60.507 757.785 60.507 757.754 60.491 c 757.973 61.147 
758.52 61.507 759.098 61.507 c 760.004 61.507 760.426 60.694 760.426 59.882
 c 760.426 59.085 759.941 58.303 759.379 57.678 c 757.473 55.553 l 757.363
 55.444 757.363 55.413 757.363 55.178 c 761.066 55.178 l 761.332 56.913 
l 761.098 56.913 l 761.035 56.616 760.973 56.178 760.863 56.022 c 760.801
 55.944 760.145 55.944 759.926 55.944 c h
758.129 55.944 m f
0.3985 w
q 1 0 0 1 0 124.748749 cm
739.469 -108.688 m 739.469 -118.609 l S Q
q 1 0 0 1 0 124.748749 cm
729.551 -118.609 m 749.391 -118.609 l S Q
Q q
730.492 4.846 18 -4.855 re W n
q
730 5.749 19 -6 re W n
[ 1 0 0 1 0 -0.251251 ] concat
  q
0 g
0.3985 w
0 J
0 j
[] 0.0 d
10 M q 1 0 0 1 0 125 cm
731.535 -120.594 m 747.406 -120.594 l 733.516 -122.574 m 745.422 -122.574
 l 735.504 -124.559 m 743.438 -124.559 l S Q
  Q
Q
Q q
0 g
0.3985 w
0 J
0 j
[] 0.0 d
10 M q 1 0 0 1 0 124.748749 cm
739.469 -23.645 m 767.816 -23.645 l S Q
1 g
769.406 101.104 m 769.406 101.979 768.695 102.69 767.816 102.69 c 766.941
 102.69 766.23 101.979 766.23 101.104 c 766.23 100.225 766.941 99.514 767.816
 99.514 c 768.695 99.514 769.406 100.225 769.406 101.104 c h
769.406 101.104 m f
0 g
q 1 0 0 1 0 124.748749 cm
769.406 -23.645 m 769.406 -22.77 768.695 -22.059 767.816 -22.059 c 766.941
 -22.059 766.23 -22.77 766.23 -23.645 c 766.23 -24.523 766.941 -25.234 767.816
 -25.234 c 768.695 -25.234 769.406 -24.523 769.406 -23.645 c h
769.406 -23.645 m S Q
777.594 104.116 m 778.078 104.897 778.5 104.928 778.859 104.944 c 778.984
 104.96 779 105.116 779 105.132 c 779 105.21 778.938 105.257 778.859 105.257
 c 778.609 105.257 778.312 105.225 778.047 105.225 c 777.719 105.225 777.375
 105.257 777.062 105.257 c 777 105.257 776.875 105.257 776.875 105.069 c
 776.875 104.96 776.953 104.944 777.031 104.944 c 777.297 104.928 777.484
 104.819 777.484 104.616 c 777.484 104.46 777.344 104.241 777.344 104.241
 c 774.281 99.366 l 773.594 104.647 l 773.594 104.819 773.828 104.944 774.281
 104.944 c 774.422 104.944 774.531 104.944 774.531 105.147 c 774.531 105.225
 774.453 105.257 774.406 105.257 c 774 105.257 773.578 105.225 773.156 105.225
 c 772.609 105.225 l 772.438 105.225 772.25 105.257 772.078 105.257 c 772
 105.257 771.891 105.257 771.891 105.069 c 771.891 104.944 771.969 104.944
 772.141 104.944 c 772.688 104.944 772.703 104.85 772.734 104.6 c 773.516
 98.46 l 773.547 98.257 773.594 98.225 773.719 98.225 c 773.875 98.225 773.922
 98.272 774 98.397 c h
777.594 104.116 m f
782.918 99.921 m 782.918 101.014 782.121 101.858 780.887 101.858 c 779.23
 101.858 777.621 100.296 777.621 98.717 c 777.621 97.592 778.449 96.811 
779.652 96.811 c 781.309 96.811 782.918 98.327 782.918 99.921 c h
779.699 97.046 m 778.965 97.046 778.34 97.546 778.34 98.577 c 778.34 98.936
 778.434 99.921 779.074 100.717 c 779.543 101.28 780.215 101.624 780.84 
101.624 c 781.559 101.624 782.23 101.171 782.23 100.155 c 782.23 99.655 
782.012 98.624 781.371 97.889 c 780.887 97.327 780.246 97.046 779.699 97.046
 c h
779.699 97.046 m f
788.336 100.952 m 788.414 101.217 788.523 101.452 789.086 101.467 c 789.117
 101.467 789.227 101.467 789.227 101.608 c 789.227 101.655 789.18 101.717
 789.117 101.717 c 788.898 101.717 788.633 101.686 788.398 101.686 c 788.164
 101.686 787.867 101.717 787.664 101.717 c 787.633 101.717 787.523 101.717
 787.523 101.561 c 787.523 101.467 787.617 101.467 787.68 101.467 c 788.008
 101.452 788.117 101.342 788.117 101.171 c 788.117 101.077 l 788.008 100.624
 787.492 98.53 787.414 98.311 c 787.023 97.421 786.195 97.061 785.633 97.061
 c 785.164 97.061 784.664 97.296 784.664 97.983 c 784.664 98.155 784.695
 98.327 784.727 98.483 c 785.414 101.171 l 785.477 101.405 785.477 101.467
 786.023 101.467 c 786.133 101.467 786.227 101.467 786.227 101.608 c 786.227
 101.639 786.211 101.717 786.117 101.717 c 785.914 101.717 785.414 101.686
 785.211 101.686 c 784.727 101.686 l 784.586 101.702 784.414 101.717 784.289
 101.717 c 784.242 101.717 784.133 101.717 784.133 101.561 c 784.133 101.467
 784.227 101.467 784.367 101.467 c 784.367 101.467 784.508 101.467 784.633
 101.452 c 784.773 101.436 784.789 101.421 784.789 101.342 c 784.789 101.311
 784.711 101.03 784.68 100.889 c 784.523 100.264 l 784.117 98.671 l 784.055
 98.389 784.055 98.327 784.055 98.186 c 784.055 97.327 784.773 96.811 785.602
 96.811 c 786.57 96.811 787.492 97.592 787.727 98.499 c h
788.336 100.952 m f
792.977 101.171 m 793.023 101.374 793.039 101.389 793.195 101.405 c 793.602
 101.405 l 794.039 101.405 794.211 101.405 794.383 101.358 c 794.695 101.264
 794.711 101.061 794.711 100.811 c 794.711 100.702 794.711 100.608 794.664
 100.249 c 794.648 100.171 l 794.648 100.092 794.695 100.061 794.773 100.061
 c 794.883 100.061 794.883 100.124 794.898 100.233 c 795.086 101.561 l 795.086
 101.655 795.008 101.655 794.883 101.655 c 790.602 101.655 l 790.43 101.655
 790.414 101.655 790.367 101.514 c 789.914 100.28 l 789.914 100.249 789.883
 100.186 789.883 100.155 c 789.883 100.124 789.898 100.061 790.008 100.061
 c 790.102 100.061 790.102 100.092 790.148 100.233 c 790.555 101.342 790.789
 101.405 791.852 101.405 c 792.133 101.405 l 792.352 101.405 792.352 101.405
 792.352 101.342 c 792.352 101.342 792.352 101.296 792.32 101.202 c 791.398
 97.53 l 791.336 97.28 791.32 97.202 790.586 97.202 c 790.336 97.202 790.273
 97.202 790.273 97.046 c 790.273 97.03 790.289 96.952 790.398 96.952 c 790.586
 96.952 790.805 96.967 790.992 96.967 c 791.195 96.967 791.398 96.983 791.586
 96.983 c 791.789 96.983 792.023 96.983 792.227 96.967 c 792.414 96.967 
792.617 96.952 792.805 96.952 c 792.867 96.952 792.961 96.952 792.961 97.108
 c 792.961 97.202 792.898 97.202 792.68 97.202 c 792.555 97.202 792.414 
97.217 792.273 97.217 c 792.039 97.233 792.023 97.264 792.023 97.342 c 792.023
 97.405 792.023 97.405 792.055 97.514 c h
792.977 101.171 m f
0 0 1 rg
26.449 106.71 m 26.418 106.553 26.355 106.319 26.355 106.272 c 26.355 106.1
 26.496 106.007 26.652 106.007 c 26.777 106.007 26.949 106.085 27.027 106.288
 c 27.027 106.303 27.152 106.772 27.215 107.022 c 27.434 107.913 l 27.48
 108.147 27.543 108.366 27.605 108.585 c 27.637 108.757 27.715 109.053 27.73
 109.085 c 27.871 109.397 28.402 110.303 29.355 110.303 c 29.809 110.303
 29.887 109.928 29.887 109.6 c 29.887 108.991 29.402 107.71 29.246 107.288
 c 29.152 107.053 29.137 106.928 29.137 106.819 c 29.137 106.35 29.496 106.007
 29.965 106.007 c 30.902 106.007 31.262 107.46 31.262 107.538 c 31.262 107.647
 31.184 107.647 31.152 107.647 c 31.043 107.647 31.043 107.616 30.996 107.46
 c 30.793 106.788 30.465 106.225 29.98 106.225 c 29.809 106.225 29.746 106.319
 29.746 106.553 c 29.746 106.803 29.824 107.038 29.918 107.257 c 30.105 
107.788 30.527 108.882 30.527 109.46 c 30.527 110.116 30.105 110.522 29.387
 110.522 c 28.48 110.522 27.996 109.882 27.824 109.647 c 27.777 110.21 27.371
 110.522 26.902 110.522 c 26.449 110.522 26.262 110.132 26.168 109.96 c 
25.996 109.616 25.871 109.022 25.871 108.991 c 25.871 108.882 25.965 108.882
 25.98 108.882 c 26.09 108.882 26.09 108.897 26.152 109.116 c 26.324 109.819
 26.527 110.303 26.887 110.303 c 27.074 110.303 27.184 110.178 27.184 109.85
 c 27.184 109.632 27.152 109.522 27.027 109.007 c h
26.449 106.71 m f
33.883 109.057 m 33.883 109.245 33.883 109.245 33.68 109.245 c 33.227 108.807
 32.602 108.807 32.32 108.807 c 32.32 108.557 l 32.477 108.557 32.945 108.557
 33.32 108.745 c 33.32 105.198 l 33.32 104.964 33.32 104.87 32.633 104.87
 c 32.367 104.87 l 32.367 104.62 l 32.492 104.62 33.352 104.651 33.602 104.651
 c 33.82 104.651 34.695 104.62 34.852 104.62 c 34.852 104.87 l 34.586 104.87
 l 33.883 104.87 33.883 104.964 33.883 105.198 c h
33.883 109.057 m f
111.488 106.71 m 111.457 106.553 111.395 106.319 111.395 106.272 c 111.395
 106.1 111.535 106.007 111.691 106.007 c 111.816 106.007 111.988 106.085
 112.066 106.288 c 112.066 106.303 112.191 106.772 112.254 107.022 c 112.473
 107.913 l 112.52 108.147 112.582 108.366 112.645 108.585 c 112.676 108.757
 112.754 109.053 112.77 109.085 c 112.91 109.397 113.441 110.303 114.395
 110.303 c 114.848 110.303 114.926 109.928 114.926 109.6 c 114.926 108.991
 114.441 107.71 114.285 107.288 c 114.191 107.053 114.176 106.928 114.176
 106.819 c 114.176 106.35 114.535 106.007 115.004 106.007 c 115.941 106.007
 116.301 107.46 116.301 107.538 c 116.301 107.647 116.223 107.647 116.191
 107.647 c 116.082 107.647 116.082 107.616 116.035 107.46 c 115.832 106.788
 115.504 106.225 115.02 106.225 c 114.848 106.225 114.785 106.319 114.785
 106.553 c 114.785 106.803 114.863 107.038 114.957 107.257 c 115.145 107.788
 115.566 108.882 115.566 109.46 c 115.566 110.116 115.145 110.522 114.426
 110.522 c 113.52 110.522 113.035 109.882 112.863 109.647 c 112.816 110.21
 112.41 110.522 111.941 110.522 c 111.488 110.522 111.301 110.132 111.207
 109.96 c 111.035 109.616 110.91 109.022 110.91 108.991 c 110.91 108.882
 111.004 108.882 111.02 108.882 c 111.129 108.882 111.129 108.897 111.191
 109.116 c 111.363 109.819 111.566 110.303 111.926 110.303 c 112.113 110.303
 112.223 110.178 112.223 109.85 c 112.223 109.632 112.191 109.522 112.066
 109.007 c h
111.488 106.71 m f
120.109 105.885 m 119.875 105.885 l 119.859 105.729 119.781 105.323 119.688
 105.26 c 119.641 105.214 119.109 105.214 119 105.214 c 117.719 105.214 
l 118.453 105.854 118.703 106.057 119.109 106.385 c 119.625 106.792 120.109
 107.229 120.109 107.885 c 120.109 108.729 119.375 109.245 118.484 109.245
 c 117.625 109.245 117.031 108.635 117.031 107.995 c 117.031 107.651 117.328
 107.604 117.406 107.604 c 117.562 107.604 117.766 107.729 117.766 107.979
 c 117.766 108.104 117.719 108.354 117.359 108.354 c 117.578 108.839 118.047
 108.995 118.375 108.995 c 119.078 108.995 119.438 108.448 119.438 107.885
 c 119.438 107.276 119 106.807 118.781 106.557 c 117.109 104.885 l 117.031
 104.823 117.031 104.807 117.031 104.62 c 119.906 104.62 l h
120.109 105.885 m f
196.527 106.71 m 196.496 106.553 196.434 106.319 196.434 106.272 c 196.434
 106.1 196.574 106.007 196.73 106.007 c 196.855 106.007 197.027 106.085 
197.105 106.288 c 197.105 106.303 197.23 106.772 197.293 107.022 c 197.512
 107.913 l 197.559 108.147 197.621 108.366 197.684 108.585 c 197.715 108.757
 197.793 109.053 197.809 109.085 c 197.949 109.397 198.48 110.303 199.434
 110.303 c 199.887 110.303 199.965 109.928 199.965 109.6 c 199.965 108.991
 199.48 107.71 199.324 107.288 c 199.23 107.053 199.215 106.928 199.215 
106.819 c 199.215 106.35 199.574 106.007 200.043 106.007 c 200.98 106.007
 201.34 107.46 201.34 107.538 c 201.34 107.647 201.262 107.647 201.23 107.647
 c 201.121 107.647 201.121 107.616 201.074 107.46 c 200.871 106.788 200.543
 106.225 200.059 106.225 c 199.887 106.225 199.824 106.319 199.824 106.553
 c 199.824 106.803 199.902 107.038 199.996 107.257 c 200.184 107.788 200.605
 108.882 200.605 109.46 c 200.605 110.116 200.184 110.522 199.465 110.522
 c 198.559 110.522 198.074 109.882 197.902 109.647 c 197.855 110.21 197.449
 110.522 196.98 110.522 c 196.527 110.522 196.34 110.132 196.246 109.96 
c 196.074 109.616 195.949 109.022 195.949 108.991 c 195.949 108.882 196.043
 108.882 196.059 108.882 c 196.168 108.882 196.168 108.897 196.23 109.116
 c 196.402 109.819 196.605 110.303 196.965 110.303 c 197.152 110.303 197.262
 110.178 197.262 109.85 c 197.262 109.632 197.23 109.522 197.105 109.007
 c h
196.527 106.71 m f
203.539 106.948 m 204.086 106.948 204.477 106.573 204.477 105.823 c 204.477
 104.964 203.961 104.698 203.57 104.698 c 203.289 104.698 202.664 104.776
 202.383 105.198 c 202.711 105.198 202.789 105.432 202.789 105.589 c 202.789
 105.807 202.617 105.964 202.398 105.964 c 202.211 105.964 202.008 105.839
 202.008 105.557 c 202.008 104.901 202.727 104.479 203.57 104.479 c 204.539
 104.479 205.211 105.135 205.211 105.823 c 205.211 106.37 204.773 106.917
 204.008 107.073 c 204.727 107.339 204.992 107.854 204.992 108.292 c 204.992
 108.839 204.367 109.245 203.586 109.245 c 202.82 109.245 202.227 108.87
 202.227 108.307 c 202.227 108.073 202.383 107.948 202.586 107.948 c 202.805
 107.948 202.945 108.104 202.945 108.292 c 202.945 108.495 202.805 108.651
 202.586 108.667 c 202.836 108.964 203.305 109.042 203.57 109.042 c 203.883
 109.042 204.32 108.885 204.32 108.292 c 204.32 107.995 204.227 107.667 
204.039 107.464 c 203.82 107.198 203.617 107.182 203.273 107.151 c 203.102
 107.135 203.086 107.135 203.055 107.135 c 203.039 107.135 202.977 107.12
 202.977 107.042 c 202.977 106.948 203.039 106.948 203.164 106.948 c h
203.539 106.948 m f
309.914 106.71 m 309.883 106.553 309.82 106.319 309.82 106.272 c 309.82
 106.1 309.961 106.007 310.117 106.007 c 310.242 106.007 310.414 106.085
 310.492 106.288 c 310.492 106.303 310.617 106.772 310.68 107.022 c 310.898
 107.913 l 310.945 108.147 311.008 108.366 311.07 108.585 c 311.102 108.757
 311.18 109.053 311.195 109.085 c 311.336 109.397 311.867 110.303 312.82
 110.303 c 313.273 110.303 313.352 109.928 313.352 109.6 c 313.352 108.991
 312.867 107.71 312.711 107.288 c 312.617 107.053 312.602 106.928 312.602
 106.819 c 312.602 106.35 312.961 106.007 313.43 106.007 c 314.367 106.007
 314.727 107.46 314.727 107.538 c 314.727 107.647 314.648 107.647 314.617
 107.647 c 314.508 107.647 314.508 107.616 314.461 107.46 c 314.258 106.788
 313.93 106.225 313.445 106.225 c 313.273 106.225 313.211 106.319 313.211
 106.553 c 313.211 106.803 313.289 107.038 313.383 107.257 c 313.57 107.788
 313.992 108.882 313.992 109.46 c 313.992 110.116 313.57 110.522 312.852
 110.522 c 311.945 110.522 311.461 109.882 311.289 109.647 c 311.242 110.21
 310.836 110.522 310.367 110.522 c 309.914 110.522 309.727 110.132 309.633
 109.96 c 309.461 109.616 309.336 109.022 309.336 108.991 c 309.336 108.882
 309.43 108.882 309.445 108.882 c 309.555 108.882 309.555 108.897 309.617
 109.116 c 309.789 109.819 309.992 110.303 310.352 110.303 c 310.539 110.303
 310.648 110.178 310.648 109.85 c 310.648 109.632 310.617 109.522 310.492
 109.007 c h
309.914 106.71 m f
318.707 105.76 m 318.707 106.01 l 317.926 106.01 l 317.926 109.12 l 317.926
 109.26 317.926 109.323 317.785 109.323 c 317.691 109.323 317.66 109.323
 317.598 109.214 c 315.285 106.01 l 315.285 105.76 l 317.348 105.76 l 317.348
 105.198 l 317.348 104.948 317.348 104.87 316.77 104.87 c 316.582 104.87
 l 316.582 104.62 l 316.941 104.635 317.379 104.651 317.629 104.651 c 317.895
 104.651 318.332 104.635 318.691 104.62 c 318.691 104.87 l 318.504 104.87
 l 317.926 104.87 317.926 104.948 317.926 105.198 c 317.926 105.76 l h
317.395 108.557 m 317.395 106.01 l 315.551 106.01 l h
317.395 108.557 m f
423.301 106.71 m 423.27 106.553 423.207 106.319 423.207 106.272 c 423.207
 106.1 423.348 106.007 423.504 106.007 c 423.629 106.007 423.801 106.085
 423.879 106.288 c 423.879 106.303 424.004 106.772 424.066 107.022 c 424.285
 107.913 l 424.332 108.147 424.395 108.366 424.457 108.585 c 424.488 108.757
 424.566 109.053 424.582 109.085 c 424.723 109.397 425.254 110.303 426.207
 110.303 c 426.66 110.303 426.738 109.928 426.738 109.6 c 426.738 108.991
 426.254 107.71 426.098 107.288 c 426.004 107.053 425.988 106.928 425.988
 106.819 c 425.988 106.35 426.348 106.007 426.816 106.007 c 427.754 106.007
 428.113 107.46 428.113 107.538 c 428.113 107.647 428.035 107.647 428.004
 107.647 c 427.895 107.647 427.895 107.616 427.848 107.46 c 427.645 106.788
 427.316 106.225 426.832 106.225 c 426.66 106.225 426.598 106.319 426.598
 106.553 c 426.598 106.803 426.676 107.038 426.77 107.257 c 426.957 107.788
 427.379 108.882 427.379 109.46 c 427.379 110.116 426.957 110.522 426.238
 110.522 c 425.332 110.522 424.848 109.882 424.676 109.647 c 424.629 110.21
 424.223 110.522 423.754 110.522 c 423.301 110.522 423.113 110.132 423.02
 109.96 c 422.848 109.616 422.723 109.022 422.723 108.991 c 422.723 108.882
 422.816 108.882 422.832 108.882 c 422.941 108.882 422.941 108.897 423.004
 109.116 c 423.176 109.819 423.379 110.303 423.738 110.303 c 423.926 110.303
 424.035 110.178 424.035 109.85 c 424.035 109.632 424.004 109.522 423.879
 109.007 c h
423.301 106.71 m f
429.484 108.51 m 429.844 108.417 430.047 108.417 430.156 108.417 c 431.078
 108.417 431.625 109.042 431.625 109.151 c 431.625 109.229 431.578 109.245
 431.547 109.245 c 431.531 109.245 431.516 109.245 431.484 109.229 c 431.312
 109.167 430.953 109.026 430.438 109.026 c 430.234 109.026 429.875 109.042
 429.422 109.214 c 429.344 109.245 429.328 109.245 429.328 109.245 c 429.234
 109.245 429.234 109.167 429.234 109.057 c 429.234 107.01 l 429.234 106.885
 429.234 106.807 429.344 106.807 c 429.406 106.807 429.422 106.807 429.484
 106.901 c 429.781 107.276 430.219 107.339 430.453 107.339 c 430.875 107.339
 431.062 107.01 431.094 106.948 c 431.219 106.714 431.266 106.448 431.266
 106.042 c 431.266 105.839 431.266 105.432 431.047 105.12 c 430.875 104.87
 430.578 104.698 430.234 104.698 c 429.781 104.698 429.312 104.948 429.141
 105.417 c 429.406 105.401 429.547 105.573 429.547 105.76 c 429.547 106.057
 429.281 106.104 429.188 106.104 c 429.188 106.104 428.844 106.104 428.844
 105.729 c 428.844 105.104 429.422 104.479 430.25 104.479 c 431.141 104.479
 431.922 105.135 431.922 106.026 c 431.922 106.807 431.328 107.526 430.469
 107.526 c 430.156 107.526 429.797 107.464 429.484 107.198 c h
429.484 108.51 m f
536.684 106.71 m 536.652 106.553 536.59 106.319 536.59 106.272 c 536.59
 106.1 536.73 106.007 536.887 106.007 c 537.012 106.007 537.184 106.085 
537.262 106.288 c 537.262 106.303 537.387 106.772 537.449 107.022 c 537.668
 107.913 l 537.715 108.147 537.777 108.366 537.84 108.585 c 537.871 108.757
 537.949 109.053 537.965 109.085 c 538.105 109.397 538.637 110.303 539.59
 110.303 c 540.043 110.303 540.121 109.928 540.121 109.6 c 540.121 108.991
 539.637 107.71 539.48 107.288 c 539.387 107.053 539.371 106.928 539.371
 106.819 c 539.371 106.35 539.73 106.007 540.199 106.007 c 541.137 106.007
 541.496 107.46 541.496 107.538 c 541.496 107.647 541.418 107.647 541.387
 107.647 c 541.277 107.647 541.277 107.616 541.23 107.46 c 541.027 106.788
 540.699 106.225 540.215 106.225 c 540.043 106.225 539.98 106.319 539.98
 106.553 c 539.98 106.803 540.059 107.038 540.152 107.257 c 540.34 107.788
 540.762 108.882 540.762 109.46 c 540.762 110.116 540.34 110.522 539.621
 110.522 c 538.715 110.522 538.23 109.882 538.059 109.647 c 538.012 110.21
 537.605 110.522 537.137 110.522 c 536.684 110.522 536.496 110.132 536.402
 109.96 c 536.23 109.616 536.105 109.022 536.105 108.991 c 536.105 108.882
 536.199 108.882 536.215 108.882 c 536.324 108.882 536.324 108.897 536.387
 109.116 c 536.559 109.819 536.762 110.303 537.121 110.303 c 537.309 110.303
 537.418 110.178 537.418 109.85 c 537.418 109.632 537.387 109.522 537.262
 109.007 c h
536.684 106.71 m f
542.836 106.901 m 542.836 107.464 542.883 107.979 543.148 108.417 c 543.383
 108.792 543.758 109.042 544.211 109.042 c 544.414 109.042 544.695 108.995
 544.836 108.807 c 544.664 108.792 544.508 108.667 544.508 108.464 c 544.508
 108.292 544.633 108.135 544.836 108.135 c 545.055 108.135 545.18 108.276
 545.18 108.479 c 545.18 108.885 544.883 109.245 544.195 109.245 c 543.195
 109.245 542.164 108.323 542.164 106.823 c 542.164 105.026 543.008 104.479
 543.789 104.479 c 544.633 104.479 545.367 105.135 545.367 106.042 c 545.367
 106.932 544.664 107.589 543.852 107.589 c 543.289 107.589 542.992 107.214
 542.836 106.901 c h
543.789 104.698 m 543.43 104.698 543.164 104.901 543.008 105.214 c 542.914
 105.417 542.852 105.776 542.852 106.182 c 542.852 106.87 543.258 107.385
 543.82 107.385 c 544.133 107.385 544.352 107.26 544.523 107.01 c 544.695
 106.745 544.695 106.448 544.695 106.042 c 544.695 105.651 544.695 105.354
 544.508 105.073 c 544.352 104.839 544.117 104.698 543.789 104.698 c h
543.789 104.698 m f
650.07 106.71 m 650.039 106.553 649.977 106.319 649.977 106.272 c 649.977
 106.1 650.117 106.007 650.273 106.007 c 650.398 106.007 650.57 106.085 
650.648 106.288 c 650.648 106.303 650.773 106.772 650.836 107.022 c 651.055
 107.913 l 651.102 108.147 651.164 108.366 651.227 108.585 c 651.258 108.757
 651.336 109.053 651.352 109.085 c 651.492 109.397 652.023 110.303 652.977
 110.303 c 653.43 110.303 653.508 109.928 653.508 109.6 c 653.508 108.991
 653.023 107.71 652.867 107.288 c 652.773 107.053 652.758 106.928 652.758
 106.819 c 652.758 106.35 653.117 106.007 653.586 106.007 c 654.523 106.007
 654.883 107.46 654.883 107.538 c 654.883 107.647 654.805 107.647 654.773
 107.647 c 654.664 107.647 654.664 107.616 654.617 107.46 c 654.414 106.788
 654.086 106.225 653.602 106.225 c 653.43 106.225 653.367 106.319 653.367
 106.553 c 653.367 106.803 653.445 107.038 653.539 107.257 c 653.727 107.788
 654.148 108.882 654.148 109.46 c 654.148 110.116 653.727 110.522 653.008
 110.522 c 652.102 110.522 651.617 109.882 651.445 109.647 c 651.398 110.21
 650.992 110.522 650.523 110.522 c 650.07 110.522 649.883 110.132 649.789
 109.96 c 649.617 109.616 649.492 109.022 649.492 108.991 c 649.492 108.882
 649.586 108.882 649.602 108.882 c 649.711 108.882 649.711 108.897 649.773
 109.116 c 649.945 109.819 650.148 110.303 650.508 110.303 c 650.695 110.303
 650.805 110.178 650.805 109.85 c 650.805 109.632 650.773 109.522 650.648
 109.007 c h
650.07 106.71 m f
658.91 108.823 m 658.973 108.917 658.973 108.932 658.973 109.104 c 657.145
 109.104 l 656.863 109.104 656.785 109.12 656.535 109.135 c 656.176 109.167
 656.16 109.214 656.145 109.323 c 655.91 109.323 l 655.66 107.839 l 655.895
 107.839 l 655.91 107.948 655.988 108.401 656.098 108.479 c 656.145 108.51
 656.723 108.51 656.816 108.51 c 658.332 108.51 l 658.113 108.229 657.754
 107.792 657.613 107.589 c 656.707 106.401 656.613 105.292 656.613 104.885
 c 656.613 104.807 656.613 104.479 656.941 104.479 c 657.285 104.479 657.285
 104.792 657.285 104.885 c 657.285 105.167 l 657.285 106.51 657.566 107.135
 657.863 107.51 c h
658.91 108.823 m f
735.109 106.71 m 735.078 106.553 735.016 106.319 735.016 106.272 c 735.016
 106.1 735.156 106.007 735.312 106.007 c 735.438 106.007 735.609 106.085
 735.688 106.288 c 735.688 106.303 735.812 106.772 735.875 107.022 c 736.094
 107.913 l 736.141 108.147 736.203 108.366 736.266 108.585 c 736.297 108.757
 736.375 109.053 736.391 109.085 c 736.531 109.397 737.062 110.303 738.016
 110.303 c 738.469 110.303 738.547 109.928 738.547 109.6 c 738.547 108.991
 738.062 107.71 737.906 107.288 c 737.812 107.053 737.797 106.928 737.797
 106.819 c 737.797 106.35 738.156 106.007 738.625 106.007 c 739.562 106.007
 739.922 107.46 739.922 107.538 c 739.922 107.647 739.844 107.647 739.812
 107.647 c 739.703 107.647 739.703 107.616 739.656 107.46 c 739.453 106.788
 739.125 106.225 738.641 106.225 c 738.469 106.225 738.406 106.319 738.406
 106.553 c 738.406 106.803 738.484 107.038 738.578 107.257 c 738.766 107.788
 739.188 108.882 739.188 109.46 c 739.188 110.116 738.766 110.522 738.047
 110.522 c 737.141 110.522 736.656 109.882 736.484 109.647 c 736.438 110.21
 736.031 110.522 735.562 110.522 c 735.109 110.522 734.922 110.132 734.828
 109.96 c 734.656 109.616 734.531 109.022 734.531 108.991 c 734.531 108.882
 734.625 108.882 734.641 108.882 c 734.75 108.882 734.75 108.897 734.812
 109.116 c 734.984 109.819 735.188 110.303 735.547 110.303 c 735.734 110.303
 735.844 110.178 735.844 109.85 c 735.844 109.632 735.812 109.522 735.688
 109.007 c h
735.109 106.71 m f
742.684 107.135 m 743.23 107.401 743.574 107.729 743.574 108.214 c 743.574
 108.885 742.871 109.245 742.199 109.245 c 741.434 109.245 740.809 108.745
 740.809 108.089 c 740.809 107.76 740.965 107.526 741.09 107.385 c 741.215
 107.229 741.262 107.198 741.668 106.964 c 741.277 106.792 740.59 106.417
 740.59 105.682 c 740.59 104.917 741.387 104.479 742.184 104.479 c 743.074
 104.479 743.793 105.042 743.793 105.792 c 743.793 106.26 743.527 106.651
 743.121 106.885 c 743.027 106.948 742.793 107.073 742.684 107.135 c h
741.559 107.792 m 741.371 107.901 741.184 108.089 741.184 108.354 c 741.184
 108.792 741.684 109.042 742.184 109.042 c 742.73 109.042 743.215 108.698
 743.215 108.214 c 743.215 107.589 742.48 107.276 742.48 107.276 c 742.465
 107.276 742.449 107.276 742.402 107.307 c h
741.887 106.823 m 742.855 106.276 l 743.027 106.167 743.371 105.964 743.371
 105.557 c 743.371 105.026 742.793 104.698 742.199 104.698 c 741.559 104.698
 741.012 105.12 741.012 105.682 c 741.012 106.198 741.387 106.604 741.887
 106.823 c h
741.887 106.823 m f
0 g
q 1 0 0 1 0 124.748749 cm
285.922 -23.645 m 285.922 -50.293 l 285.922 -82.039 m 285.922 -108.688 
l S Q
0.797 w
q 1 0 0 1 0 124.748749 cm
285.922 -50.293 m 289.227 -50.734 291.875 -52.5 291.875 -54.59 c 291.875
 -56.684 289.227 -58.449 285.922 -58.891 c 282.617 -59.332 279.969 -58.449
 279.969 -57.238 c 279.969 -56.027 282.617 -55.141 285.922 -55.582 c 289.227
 -56.023 291.875 -57.789 291.875 -59.883 c 291.875 -61.977 289.227 -63.742
 285.922 -64.184 c 282.617 -64.621 279.969 -63.738 279.969 -62.527 c 279.969
 -61.316 282.617 -60.434 285.922 -60.875 c 289.227 -61.316 291.875 -63.082
 291.875 -65.176 c 291.875 -67.266 289.227 -69.031 285.922 -69.473 c 282.617
 -69.914 279.969 -69.031 279.969 -67.82 c 279.969 -66.609 282.617 -65.727
 285.922 -66.164 c 289.227 -66.605 291.875 -68.371 291.875 -70.465 c 291.875
 -72.559 289.227 -74.324 285.922 -74.766 c 282.617 -75.207 279.969 -74.32
 279.969 -73.109 c 279.969 -71.898 282.617 -71.016 285.922 -71.457 c 289.227
 -71.898 291.875 -73.664 291.875 -75.758 c 291.875 -77.848 289.227 -79.613
 285.922 -80.055 c 285.922 -82.039 l S Q
301.781 57.757 m 301.531 57.757 l 301.422 56.741 301.281 55.491 299.531
 55.491 c 298.719 55.491 l 298.25 55.491 298.234 55.553 298.234 55.882 c
 298.234 61.194 l 298.234 61.538 298.234 61.678 299.172 61.678 c 299.5 61.678
 l 299.5 61.991 l 299.141 61.96 298.234 61.96 297.828 61.96 c 297.438 61.96
 296.656 61.96 296.312 61.991 c 296.312 61.678 l 296.547 61.678 l 297.312
 61.678 297.344 61.569 297.344 61.21 c 297.344 55.96 l 297.344 55.6 297.312
 55.491 296.547 55.491 c 296.312 55.491 l 296.312 55.178 l 301.5 55.178 
l h
301.781 57.757 m f
303.477 55.944 m 304.539 56.975 l 306.086 58.35 306.68 58.882 306.68 59.882
 c 306.68 61.022 305.789 61.819 304.57 61.819 c 303.445 61.819 302.711 60.897
 302.711 60.007 c 302.711 59.46 303.211 59.46 303.242 59.46 c 303.414 59.46
 303.758 59.569 303.758 59.991 c 303.758 60.241 303.57 60.507 303.227 60.507
 c 303.148 60.507 303.133 60.507 303.102 60.491 c 303.32 61.147 303.867 
61.507 304.445 61.507 c 305.352 61.507 305.773 60.694 305.773 59.882 c 305.773
 59.085 305.289 58.303 304.727 57.678 c 302.82 55.553 l 302.711 55.444 302.711
 55.413 302.711 55.178 c 306.414 55.178 l 306.68 56.913 l 306.445 56.913
 l 306.383 56.616 306.32 56.178 306.211 56.022 c 306.148 55.944 305.492 
55.944 305.273 55.944 c h
303.477 55.944 m f
287.508 101.104 m 287.508 101.979 286.797 102.69 285.922 102.69 c 285.043
 102.69 284.336 101.979 284.336 101.104 c 284.336 100.225 285.043 99.514
 285.922 99.514 c 286.797 99.514 287.508 100.225 287.508 101.104 c h
287.508 101.104 m f
0.3985 w
q 1 0 0 1 0 124.748749 cm
287.508 -23.645 m 287.508 -22.77 286.797 -22.059 285.922 -22.059 c 285.043
 -22.059 284.336 -22.77 284.336 -23.645 c 284.336 -24.523 285.043 -25.234
 285.922 -25.234 c 286.797 -25.234 287.508 -24.523 287.508 -23.645 c h
287.508 -23.645 m S Q
q 1 0 0 1 0 124.748749 cm
285.922 -108.688 m 285.922 -118.609 l S Q
q 1 0 0 1 0 124.748749 cm
276 -118.609 m 295.844 -118.609 l S Q
Q q
277.492 4.846 17 -4.855 re W n
q
277 5.749 18 -6 re W n
[ 1 0 0 1 0 -0.251251 ] concat
  q
0 g
0.3985 w
0 J
0 j
[] 0.0 d
10 M q 1 0 0 1 0 125 cm
277.984 -120.594 m 293.859 -120.594 l 279.969 -122.574 m 291.875 -122.574
 l 281.953 -124.559 m 289.891 -124.559 l S Q
  Q
Q
Q q
0 g
0.3985 w
0 J
0 j
[] 0.0 d
10 M q 1 0 0 1 0 124.748749 cm
342.613 -23.645 m 342.613 -62.199 l 342.613 -70.133 m 342.613 -108.688 
l S Q
0.797 w
q 1 0 0 1 0 124.748749 cm
354.52 -62.199 m 330.711 -62.199 l 354.52 -70.133 m 330.711 -70.133 l S Q
359.789 58.585 m 359.789 56.522 361.398 54.96 363.258 54.96 c 364.883 54.96
 365.852 56.35 365.852 57.507 c 365.852 57.6 365.852 57.678 365.727 57.678
 c 365.617 57.678 365.617 57.616 365.602 57.507 c 365.523 56.085 364.461
 55.272 363.367 55.272 c 362.758 55.272 360.805 55.6 360.805 58.585 c 360.805
 61.553 362.758 61.897 363.367 61.897 c 364.445 61.897 365.336 60.991 365.539
 59.538 c 365.555 59.397 365.555 59.366 365.695 59.366 c 365.852 59.366 
365.852 59.397 365.852 59.6 c 365.852 61.96 l 365.852 62.132 365.852 62.21
 365.742 62.21 c 365.711 62.21 365.664 62.21 365.586 62.085 c 365.086 61.35
 l 364.727 61.71 364.211 62.21 363.258 62.21 c 361.383 62.21 359.789 60.616
 359.789 58.585 c h
359.789 58.585 m f
367.688 55.944 m 368.75 56.975 l 370.297 58.35 370.891 58.882 370.891 59.882
 c 370.891 61.022 370 61.819 368.781 61.819 c 367.656 61.819 366.922 60.897
 366.922 60.007 c 366.922 59.46 367.422 59.46 367.453 59.46 c 367.625 59.46
 367.969 59.569 367.969 59.991 c 367.969 60.241 367.781 60.507 367.438 60.507
 c 367.359 60.507 367.344 60.507 367.312 60.491 c 367.531 61.147 368.078
 61.507 368.656 61.507 c 369.562 61.507 369.984 60.694 369.984 59.882 c 
369.984 59.085 369.5 58.303 368.938 57.678 c 367.031 55.553 l 366.922 55.444
 366.922 55.413 366.922 55.178 c 370.625 55.178 l 370.891 56.913 l 370.656
 56.913 l 370.594 56.616 370.531 56.178 370.422 56.022 c 370.359 55.944 
369.703 55.944 369.484 55.944 c h
367.688 55.944 m f
344.203 101.104 m 344.203 101.979 343.492 102.69 342.613 102.69 c 341.738
 102.69 341.027 101.979 341.027 101.104 c 341.027 100.225 341.738 99.514
 342.613 99.514 c 343.492 99.514 344.203 100.225 344.203 101.104 c h
344.203 101.104 m f
0.3985 w
q 1 0 0 1 0 124.748749 cm
344.203 -23.645 m 344.203 -22.77 343.492 -22.059 342.613 -22.059 c 341.738
 -22.059 341.027 -22.77 341.027 -23.645 c 341.027 -24.523 341.738 -25.234
 342.613 -25.234 c 343.492 -25.234 344.203 -24.523 344.203 -23.645 c h
344.203 -23.645 m S Q
q 1 0 0 1 0 124.748749 cm
342.613 -108.688 m 342.613 -118.609 l S Q
q 1 0 0 1 0 124.748749 cm
332.695 -118.609 m 352.535 -118.609 l S Q
Q q
333.492 4.846 18 -4.855 re W n
q
333 5.749 19 -6 re W n
[ 1 0 0 1 0 -0.251251 ] concat
  q
0 g
0.3985 w
0 J
0 j
[] 0.0 d
10 M q 1 0 0 1 0 125 cm
334.68 -120.594 m 350.551 -120.594 l 336.664 -122.574 m 348.566 -122.574
 l 338.648 -124.559 m 346.582 -124.559 l S Q
  Q
Q
Q q
0 g
0.3985 w
0 J
0 j
[] 0.0 d
10 M q 1 0 0 1 0 124.748749 cm
512.695 -23.645 m 512.695 -50.293 l 512.695 -82.039 m 512.695 -108.688 
l S Q
0.797 w
q 1 0 0 1 0 124.748749 cm
512.695 -50.293 m 516 -50.734 518.648 -52.5 518.648 -54.59 c 518.648 -56.684
 516 -58.449 512.695 -58.891 c 509.391 -59.332 506.742 -58.449 506.742 -57.238
 c 506.742 -56.027 509.391 -55.141 512.695 -55.582 c 516 -56.023 518.648
 -57.789 518.648 -59.883 c 518.648 -61.977 516 -63.742 512.695 -64.184 c
 509.391 -64.621 506.742 -63.738 506.742 -62.527 c 506.742 -61.316 509.391
 -60.434 512.695 -60.875 c 516 -61.316 518.648 -63.082 518.648 -65.176 c
 518.648 -67.266 516 -69.031 512.695 -69.473 c 509.391 -69.914 506.742 -69.031
 506.742 -67.82 c 506.742 -66.609 509.391 -65.727 512.695 -66.164 c 516 
-66.605 518.648 -68.371 518.648 -70.465 c 518.648 -72.559 516 -74.324 512.695
 -74.766 c 509.391 -75.207 506.742 -74.32 506.742 -73.109 c 506.742 -71.898
 509.391 -71.016 512.695 -71.457 c 516 -71.898 518.648 -73.664 518.648 -75.758
 c 518.648 -77.848 516 -79.613 512.695 -80.055 c 512.695 -82.039 l S Q
528.555 57.757 m 528.305 57.757 l 528.195 56.741 528.055 55.491 526.305
 55.491 c 525.492 55.491 l 525.023 55.491 525.008 55.553 525.008 55.882 
c 525.008 61.194 l 525.008 61.538 525.008 61.678 525.945 61.678 c 526.273
 61.678 l 526.273 61.991 l 525.914 61.96 525.008 61.96 524.602 61.96 c 524.211
 61.96 523.43 61.96 523.086 61.991 c 523.086 61.678 l 523.32 61.678 l 524.086
 61.678 524.117 61.569 524.117 61.21 c 524.117 55.96 l 524.117 55.6 524.086
 55.491 523.32 55.491 c 523.086 55.491 l 523.086 55.178 l 528.273 55.178
 l h
528.555 57.757 m f
531.922 56.819 m 531.922 55.96 l 531.922 55.6 531.891 55.491 531.156 55.491
 c 530.953 55.491 l 530.953 55.178 l 531.359 55.21 531.875 55.21 532.297
 55.21 c 532.719 55.21 533.234 55.21 533.656 55.178 c 533.656 55.491 l 533.438
 55.491 l 532.703 55.491 532.688 55.6 532.688 55.96 c 532.688 56.819 l 533.672
 56.819 l 533.672 57.132 l 532.688 57.132 l 532.688 61.663 l 532.688 61.866
 532.688 61.928 532.516 61.928 c 532.438 61.928 532.406 61.928 532.328 61.803
 c 529.266 57.132 l 529.266 56.819 l h
531.969 57.132 m 529.547 57.132 l 531.969 60.85 l h
531.969 57.132 m f
514.281 101.104 m 514.281 101.979 513.574 102.69 512.695 102.69 c 511.82
 102.69 511.109 101.979 511.109 101.104 c 511.109 100.225 511.82 99.514 
512.695 99.514 c 513.574 99.514 514.281 100.225 514.281 101.104 c h
514.281 101.104 m f
0.3985 w
q 1 0 0 1 0 124.748749 cm
514.281 -23.645 m 514.281 -22.77 513.574 -22.059 512.695 -22.059 c 511.82
 -22.059 511.109 -22.77 511.109 -23.645 c 511.109 -24.523 511.82 -25.234
 512.695 -25.234 c 513.574 -25.234 514.281 -24.523 514.281 -23.645 c h
514.281 -23.645 m S Q
q 1 0 0 1 0 124.748749 cm
512.695 -108.688 m 512.695 -118.609 l S Q
q 1 0 0 1 0 124.748749 cm
502.773 -118.609 m 522.617 -118.609 l S Q
Q q
504.492 4.846 17 -4.855 re W n
q
504 5.749 18 -6 re W n
[ 1 0 0 1 0 -0.251251 ] concat
  q
0 g
0.3985 w
0 J
0 j
[] 0.0 d
10 M q 1 0 0 1 0 125 cm
504.758 -120.594 m 520.633 -120.594 l 506.742 -122.574 m 518.648 -122.574
 l 508.727 -124.559 m 516.664 -124.559 l S Q
  Q
Q
Q q
0 g
0.3985 w
0 J
0 j
[] 0.0 d
10 M q 1 0 0 1 0 124.748749 cm
569.391 -23.645 m 569.391 -62.199 l 569.391 -70.133 m 569.391 -108.688 
l S Q
0.797 w
q 1 0 0 1 0 124.748749 cm
581.297 -62.199 m 557.484 -62.199 l 581.297 -70.133 m 557.484 -70.133 l
 S Q
586.559 58.585 m 586.559 56.522 588.168 54.96 590.027 54.96 c 591.652 54.96
 592.621 56.35 592.621 57.507 c 592.621 57.6 592.621 57.678 592.496 57.678
 c 592.387 57.678 592.387 57.616 592.371 57.507 c 592.293 56.085 591.23 
55.272 590.137 55.272 c 589.527 55.272 587.574 55.6 587.574 58.585 c 587.574
 61.553 589.527 61.897 590.137 61.897 c 591.215 61.897 592.105 60.991 592.309
 59.538 c 592.324 59.397 592.324 59.366 592.465 59.366 c 592.621 59.366 
592.621 59.397 592.621 59.6 c 592.621 61.96 l 592.621 62.132 592.621 62.21
 592.512 62.21 c 592.48 62.21 592.434 62.21 592.355 62.085 c 591.855 61.35
 l 591.496 61.71 590.98 62.21 590.027 62.21 c 588.152 62.21 586.559 60.616
 586.559 58.585 c h
586.559 58.585 m f
596.129 56.819 m 596.129 55.96 l 596.129 55.6 596.098 55.491 595.363 55.491
 c 595.16 55.491 l 595.16 55.178 l 595.566 55.21 596.082 55.21 596.504 55.21
 c 596.926 55.21 597.441 55.21 597.863 55.178 c 597.863 55.491 l 597.645
 55.491 l 596.91 55.491 596.895 55.6 596.895 55.96 c 596.895 56.819 l 597.879
 56.819 l 597.879 57.132 l 596.895 57.132 l 596.895 61.663 l 596.895 61.866
 596.895 61.928 596.723 61.928 c 596.645 61.928 596.613 61.928 596.535 61.803
 c 593.473 57.132 l 593.473 56.819 l h
596.176 57.132 m 593.754 57.132 l 596.176 60.85 l h
596.176 57.132 m f
570.977 101.104 m 570.977 101.979 570.266 102.69 569.391 102.69 c 568.512
 102.69 567.801 101.979 567.801 101.104 c 567.801 100.225 568.512 99.514
 569.391 99.514 c 570.266 99.514 570.977 100.225 570.977 101.104 c h
570.977 101.104 m f
0.3985 w
q 1 0 0 1 0 124.748749 cm
570.977 -23.645 m 570.977 -22.77 570.266 -22.059 569.391 -22.059 c 568.512
 -22.059 567.801 -22.77 567.801 -23.645 c 567.801 -24.523 568.512 -25.234
 569.391 -25.234 c 570.266 -25.234 570.977 -24.523 570.977 -23.645 c h
570.977 -23.645 m S Q
q 1 0 0 1 0 124.748749 cm
569.391 -108.688 m 569.391 -118.609 l S Q
q 1 0 0 1 0 124.748749 cm
559.469 -118.609 m 579.313 -118.609 l S Q
Q q
560.492 4.846 18 -4.855 re W n
q
560 5.749 19 -6 re W n
[ 1 0 0 1 0 -0.251251 ] concat
  q
0 g
0.3985 w
0 J
0 j
[] 0.0 d
10 M q 1 0 0 1 0 125 cm
561.453 -120.594 m 577.328 -120.594 l 563.438 -122.574 m 575.344 -122.574
 l 565.422 -124.559 m 573.359 -124.559 l S Q
  Q
Q
Q q
0 g
0.3985 w
0 J
0 j
[] 0.0 d
10 M q 1 0 0 1 0 124.748749 cm
30.801 -108.688 m 30.801 -118.609 l S Q
q 1 0 0 1 0 124.748749 cm
20.879 -118.609 m 40.723 -118.609 l S Q
Q q
22.492 4.846 17 -4.855 re W n
q
22 5.749 18 -6 re W n
[ 1 0 0 1 0 -0.251251 ] concat
  q
0 g
0.3985 w
0 J
0 j
[] 0.0 d
10 M q 1 0 0 1 0 125 cm
22.863 -120.594 m 38.738 -120.594 l 24.848 -122.574 m 36.754 -122.574 l
 26.832 -124.559 m 34.77 -124.559 l S Q
  Q
Q
Q Q
showpage
%%Trailer
end restore
%%EOF
